unpigz -c data/inplanta-Pf2-024-R1.fastq.gz | grep -c "^@" > data/inplanta-Pf2-024-R1.fastq.gz.nrecords
unpigz -c data/inplanta-Pf2-025-R1.fastq.gz | grep -c "^@" > data/inplanta-Pf2-025-R1.fastq.gz.nrecords
unpigz -c data/inplanta-Pf2-026-R1.fastq.gz | grep -c "^@" > data/inplanta-Pf2-026-R1.fastq.gz.nrecords
unpigz -c data/inplanta-Pf2-027-R1.fastq.gz | grep -c "^@" > data/inplanta-Pf2-027-R1.fastq.gz.nrecords
unpigz -c data/inplanta-SN15-016-R1.fastq.gz | grep -c "^@" > data/inplanta-SN15-016-R1.fastq.gz.nrecords
unpigz -c data/inplanta-SN15-017-R1.fastq.gz | grep -c "^@" > data/inplanta-SN15-017-R1.fastq.gz.nrecords
unpigz -c data/inplanta-SN15-019-R1.fastq.gz | grep -c "^@" > data/inplanta-SN15-019-R1.fastq.gz.nrecords
unpigz -c data/inplanta-SN15-018-R1.fastq.gz | grep -c "^@" > data/inplanta-SN15-018-R1.fastq.gz.nrecords
unpigz -c data/inplanta-Tween-012-R1.fastq.gz | grep -c "^@" > data/inplanta-Tween-012-R1.fastq.gz.nrecords
unpigz -c data/inplanta-Tween-014-R1.fastq.gz | grep -c "^@" > data/inplanta-Tween-014-R1.fastq.gz.nrecords
unpigz -c data/inplanta-Tween-013-R1.fastq.gz | grep -c "^@" > data/inplanta-Tween-013-R1.fastq.gz.nrecords
unpigz -c data/inplanta-Tween-015-R1.fastq.gz | grep -c "^@" > data/inplanta-Tween-015-R1.fastq.gz.nrecords
unpigz -c data/invitro-3KO-004-R1.fastq.gz | grep -c "^@" > data/invitro-3KO-004-R1.fastq.gz.nrecords
unpigz -c data/invitro-3KO-005-R1.fastq.gz | grep -c "^@" > data/invitro-3KO-005-R1.fastq.gz.nrecords
unpigz -c data/invitro-3KO-006-R1.fastq.gz | grep -c "^@" > data/invitro-3KO-006-R1.fastq.gz.nrecords
unpigz -c data/invitro-3KO-007-R1.fastq.gz | grep -c "^@" > data/invitro-3KO-007-R1.fastq.gz.nrecords
unpigz -c data/invitro-Pf2-008-R1.fastq.gz | grep -c "^@" > data/invitro-Pf2-008-R1.fastq.gz.nrecords
unpigz -c data/invitro-Pf2-009-R1.fastq.gz | grep -c "^@" > data/invitro-Pf2-009-R1.fastq.gz.nrecords
unpigz -c data/invitro-Pf2-010-R1.fastq.gz | grep -c "^@" > data/invitro-Pf2-010-R1.fastq.gz.nrecords
unpigz -c data/invitro-Pf2-011-R1.fastq.gz | grep -c "^@" > data/invitro-Pf2-011-R1.fastq.gz.nrecords
unpigz -c data/invitro-SN15-000-R1.fastq.gz | grep -c "^@" > data/invitro-SN15-000-R1.fastq.gz.nrecords
unpigz -c data/invitro-SN15-001-R1.fastq.gz | grep -c "^@" > data/invitro-SN15-001-R1.fastq.gz.nrecords
unpigz -c data/invitro-SN15-002-R1.fastq.gz | grep -c "^@" > data/invitro-SN15-002-R1.fastq.gz.nrecords
unpigz -c data/invitro-SN15-003-R1.fastq.gz | grep -c "^@" > data/invitro-SN15-003-R1.fastq.gz.nrecords
unpigz -c data/inplanta-Pf2-024-R2.fastq.gz | grep -c "^@" > data/inplanta-Pf2-024-R2.fastq.gz.nrecords
unpigz -c data/inplanta-Pf2-025-R2.fastq.gz | grep -c "^@" > data/inplanta-Pf2-025-R2.fastq.gz.nrecords
unpigz -c data/inplanta-Pf2-026-R2.fastq.gz | grep -c "^@" > data/inplanta-Pf2-026-R2.fastq.gz.nrecords
unpigz -c data/inplanta-Pf2-027-R2.fastq.gz | grep -c "^@" > data/inplanta-Pf2-027-R2.fastq.gz.nrecords
unpigz -c data/inplanta-SN15-016-R2.fastq.gz | grep -c "^@" > data/inplanta-SN15-016-R2.fastq.gz.nrecords
unpigz -c data/inplanta-SN15-017-R2.fastq.gz | grep -c "^@" > data/inplanta-SN15-017-R2.fastq.gz.nrecords
unpigz -c data/inplanta-SN15-018-R2.fastq.gz | grep -c "^@" > data/inplanta-SN15-018-R2.fastq.gz.nrecords
unpigz -c data/inplanta-SN15-019-R2.fastq.gz | grep -c "^@" > data/inplanta-SN15-019-R2.fastq.gz.nrecords
unpigz -c data/inplanta-Tween-012-R2.fastq.gz | grep -c "^@" > data/inplanta-Tween-012-R2.fastq.gz.nrecords
unpigz -c data/inplanta-Tween-013-R2.fastq.gz | grep -c "^@" > data/inplanta-Tween-013-R2.fastq.gz.nrecords
unpigz -c data/inplanta-Tween-014-R2.fastq.gz | grep -c "^@" > data/inplanta-Tween-014-R2.fastq.gz.nrecords
unpigz -c data/inplanta-Tween-015-R2.fastq.gz | grep -c "^@" > data/inplanta-Tween-015-R2.fastq.gz.nrecords
unpigz -c data/invitro-3KO-004-R2.fastq.gz | grep -c "^@" > data/invitro-3KO-004-R2.fastq.gz.nrecords
unpigz -c data/invitro-3KO-005-R2.fastq.gz | grep -c "^@" > data/invitro-3KO-005-R2.fastq.gz.nrecords
unpigz -c data/invitro-3KO-006-R2.fastq.gz | grep -c "^@" > data/invitro-3KO-006-R2.fastq.gz.nrecords
unpigz -c data/invitro-3KO-007-R2.fastq.gz | grep -c "^@" > data/invitro-3KO-007-R2.fastq.gz.nrecords
unpigz -c data/invitro-Pf2-008-R2.fastq.gz | grep -c "^@" > data/invitro-Pf2-008-R2.fastq.gz.nrecords
unpigz -c data/invitro-Pf2-009-R2.fastq.gz | grep -c "^@" > data/invitro-Pf2-009-R2.fastq.gz.nrecords
unpigz -c data/invitro-Pf2-010-R2.fastq.gz | grep -c "^@" > data/invitro-Pf2-010-R2.fastq.gz.nrecords
unpigz -c data/invitro-Pf2-011-R2.fastq.gz | grep -c "^@" > data/invitro-Pf2-011-R2.fastq.gz.nrecords
unpigz -c data/invitro-SN15-000-R2.fastq.gz | grep -c "^@" > data/invitro-SN15-000-R2.fastq.gz.nrecords
unpigz -c data/invitro-SN15-001-R2.fastq.gz | grep -c "^@" > data/invitro-SN15-001-R2.fastq.gz.nrecords
unpigz -c data/invitro-SN15-002-R2.fastq.gz | grep -c "^@" > data/invitro-SN15-002-R2.fastq.gz.nrecords
unpigz -c data/invitro-SN15-003-R2.fastq.gz | grep -c "^@" > data/invitro-SN15-003-R2.fastq.gz.nrecords
	Command being timed: "make nrecords -j 12"
	User time (seconds): 16083.54
	System time (seconds): 2891.97
	Percent of CPU this job got: 1087%
	Elapsed (wall clock) time (h:mm:ss or m:ss): 29:05.53
	Average shared text size (kbytes): 0
	Average unshared data size (kbytes): 0
	Average stack size (kbytes): 0
	Average total size (kbytes): 0
	Maximum resident set size (kbytes): 2200
	Average resident set size (kbytes): 0
	Major (requiring I/O) page faults: 1
	Minor (reclaiming a frame) page faults: 81946
	Voluntary context switches: 345567401
	Involuntary context switches: 248107620
	Swaps: 0
	File system inputs: 0
	File system outputs: 0
	Socket messages sent: 0
	Socket messages received: 0
	Signals delivered: 0
	Page size (bytes): 4096
	Exit status: 0
