java -Djava.library.path=/home/darcyabjones/local/bbmap/36.67-bin/jni/ -ea -Xmx219987m -cp /home/darcyabjones/local/bbmap/36.67-bin/current/ align2.BBSplitter ow=t fastareadlen=500 minhits=1 minratio=0.56 maxindel=20 qtrim=rl untrim=t trimq=6 k=13 untrim=t ambiguous=all path=03-split_by_reference/index build=1 basename=03-split_by_reference/inplanta-3KO-022-003-R1-atrimmed.fastq-R#-atrimmed-%-pre.fastq.gz outu=03-split_by_reference/inplanta-3KO-022-003-R1-atrimmed.fastq-R#-atrimmed-unmapped-pre.fastq.gz in=02-chunkify_fastqs/inplanta-3KO-022-003-R1-atrimmed.fastq in2=02-chunkify_fastqs/inplanta-3KO-022-003-R2-atrimmed.fastq ambiguous2=best maxindel=20000 refstats=03-split_by_reference/inplanta-3KO-022-003-R1-atrimmed.fastq-atrimmed-refstats.tsv scafstats=03-split_by_reference/inplanta-3KO-022-003-R1-atrimmed.fastq-atrimmed-scafstats.tsv
Executing align2.BBSplitter [ow=t, fastareadlen=500, minhits=1, minratio=0.56, maxindel=20, qtrim=rl, untrim=t, trimq=6, k=13, untrim=t, ambiguous=all, path=03-split_by_reference/index, build=1, basename=03-split_by_reference/inplanta-3KO-022-003-R1-atrimmed.fastq-R#-atrimmed-%-pre.fastq.gz, outu=03-split_by_reference/inplanta-3KO-022-003-R1-atrimmed.fastq-R#-atrimmed-unmapped-pre.fastq.gz, in=02-chunkify_fastqs/inplanta-3KO-022-003-R1-atrimmed.fastq, in2=02-chunkify_fastqs/inplanta-3KO-022-003-R2-atrimmed.fastq, ambiguous2=best, maxindel=20000, refstats=03-split_by_reference/inplanta-3KO-022-003-R1-atrimmed.fastq-atrimmed-refstats.tsv, scafstats=03-split_by_reference/inplanta-3KO-022-003-R1-atrimmed.fastq-atrimmed-scafstats.tsv]

Merged reference file 03-split_by_reference/index/ref/genome/1/merged_ref_7744785918.fa.gz already exists; skipping merge.
Ref merge time:     	0.119 seconds.
Executing align2.BBMap [ow=t, fastareadlen=500, minhits=1, minratio=0.56, maxindel=20, qtrim=rl, untrim=t, trimq=6, k=13, untrim=t, ambiguous=all, build=1, outu=03-split_by_reference/inplanta-3KO-022-003-R1-atrimmed.fastq-R#-atrimmed-unmapped-pre.fastq.gz, in=02-chunkify_fastqs/inplanta-3KO-022-003-R1-atrimmed.fastq, in2=02-chunkify_fastqs/inplanta-3KO-022-003-R2-atrimmed.fastq, ambiguous2=best, maxindel=20000, refstats=03-split_by_reference/inplanta-3KO-022-003-R1-atrimmed.fastq-atrimmed-refstats.tsv, scafstats=03-split_by_reference/inplanta-3KO-022-003-R1-atrimmed.fastq-atrimmed-scafstats.tsv, ref=03-split_by_reference/index/ref/genome/1/merged_ref_7744785918.fa.gz, out_ta=03-split_by_reference/inplanta-3KO-022-003-R1-atrimmed.fastq-R#-atrimmed-ta-pre.fastq.gz, out_pn=03-split_by_reference/inplanta-3KO-022-003-R1-atrimmed.fastq-R#-atrimmed-pn-pre.fastq.gz]

BBMap version 36.67
Set MINIMUM_ALIGNMENT_SCORE_RATIO to 0.560
Reference set statistics will be written to 03-split_by_reference/inplanta-3KO-022-003-R1-atrimmed.fastq-atrimmed-refstats.tsv
Scaffold statistics will be written to 03-split_by_reference/inplanta-3KO-022-003-R1-atrimmed.fastq-atrimmed-scafstats.tsv
Retaining all best sites for ambiguous mappings.
NOTE:	Ignoring reference file because it already appears to have been processed.
NOTE:	If you wish to regenerate the index, please manually delete 03-split_by_reference/index/ref/genome/1/summary.txt
Set genome to 1

Loaded Reference:	13.960 seconds.
Loading index for chunk 1-26, build 1
Generated Index:	53.218 seconds.
Analyzed Index:   	29.722 seconds.
Reads that map to multiple references will be written to the first reference's stream only.
Started output stream:	0.127 seconds.
Creating ref-set statistics table:    	9.546 seconds.
Creating scaffold statistics table:   	0.892 seconds.
Cleared Memory:    	8.655 seconds.
Processing reads in paired-ended mode.
Started read stream.
Started 16 mapping threads.
Detecting finished threads: 0, 1, 2, 3, 4, 5, 6, 7, 8, 9, 10, 11, 12, 13, 14, 15

   ------------------   Results   ------------------   

Genome:                	1
Key Length:            	13
Max Indel:             	20000
Minimum Score Ratio:  	0.56
Mapping Mode:         	normal
Reads Used:           	80000000	(9574219371 bases)

Mapping:          	13957.034 seconds.
Reads/sec:       	5731.88
kBases/sec:      	685.98


Pairing data:   	pct reads	num reads 	pct bases	   num bases

mated pairs:     	 93.6707% 	 37468292 	 94.4678% 	  9044553614
bad pairs:       	  3.9449% 	  1577966 	  4.0271% 	   385560252
insert size avg: 	  194.69


Read 1 data:      	pct reads	num reads 	pct bases	   num bases

mapped:          	 99.0948% 	 39637916 	 99.1421% 	  4782138177
unambiguous:     	 84.2899% 	 33715956 	 84.5537% 	  4078465793
ambiguous:       	 14.8049% 	  5921960 	 14.5884% 	   703672384
low-Q discards:  	  0.0728% 	    29126 	  0.0362% 	     1747560

perfect best site:	 49.1505% 	 19660203 	 49.2166% 	  2373973619
semiperfect site:	 49.4934% 	 19797350 	 49.5679% 	  2390917970
rescued:         	  3.4796% 	  1391855

Match Rate:      	      NA 	       NA 	 52.6726% 	  4747092751
Error Rate:      	 50.2211% 	 19906606 	 47.3160% 	  4264324373
Sub Rate:        	 31.9117% 	 12649146 	  0.3401% 	    30655158
Del Rate:        	 26.5951% 	 10541729 	 46.9385% 	  4230307621
Ins Rate:        	  2.0086% 	   796158 	  0.0373% 	     3361594
N Rate:          	  0.3139% 	   124428 	  0.0114% 	     1028674


Read 2 data:      	pct reads	num reads 	pct bases	   num bases

mapped:          	 97.8137% 	 39125481 	 98.4958% 	  4679238014
unambiguous:     	 83.0466% 	 33218640 	 83.8661% 	  3984224565
ambiguous:       	 14.7671% 	  5906841 	 14.6297% 	   695013449
low-Q discards:  	  1.2739% 	   509560 	  0.6436% 	    30573600

perfect best site:	 49.4839% 	 19793558 	 50.1759% 	  2383705079
semiperfect site:	 49.8607% 	 19944267 	 50.5672% 	  2402298195
rescued:         	  4.2632% 	  1705289

Match Rate:      	      NA 	       NA 	 51.3826% 	  4645493794
Error Rate:      	 49.1392% 	 19225943 	 48.6081% 	  4394650985
Sub Rate:        	 29.1201% 	 11393366 	  0.3301% 	    29848186
Del Rate:        	 27.4575% 	 10742866 	 48.2441% 	  4361741641
Ins Rate:        	  1.9240% 	   752776 	  0.0339% 	     3061158
N Rate:          	  0.5121% 	   200361 	  0.0092% 	      834876

Total time:     	14079.022 seconds.
java -Djava.library.path=/home/darcyabjones/local/bbmap/36.67-bin/jni/ -ea -Xmx219986m -cp /home/darcyabjones/local/bbmap/36.67-bin/current/ align2.BBSplitter ow=t fastareadlen=500 minhits=1 minratio=0.56 maxindel=20 qtrim=rl untrim=t trimq=6 k=13 untrim=t ambiguous=all path=03-split_by_reference/index build=1 basename=03-split_by_reference/inplanta-3KO-022-004-R1-atrimmed.fastq-R#-atrimmed-%-pre.fastq.gz outu=03-split_by_reference/inplanta-3KO-022-004-R1-atrimmed.fastq-R#-atrimmed-unmapped-pre.fastq.gz in=02-chunkify_fastqs/inplanta-3KO-022-004-R1-atrimmed.fastq in2=02-chunkify_fastqs/inplanta-3KO-022-004-R2-atrimmed.fastq ambiguous2=best maxindel=20000 refstats=03-split_by_reference/inplanta-3KO-022-004-R1-atrimmed.fastq-atrimmed-refstats.tsv scafstats=03-split_by_reference/inplanta-3KO-022-004-R1-atrimmed.fastq-atrimmed-scafstats.tsv
Executing align2.BBSplitter [ow=t, fastareadlen=500, minhits=1, minratio=0.56, maxindel=20, qtrim=rl, untrim=t, trimq=6, k=13, untrim=t, ambiguous=all, path=03-split_by_reference/index, build=1, basename=03-split_by_reference/inplanta-3KO-022-004-R1-atrimmed.fastq-R#-atrimmed-%-pre.fastq.gz, outu=03-split_by_reference/inplanta-3KO-022-004-R1-atrimmed.fastq-R#-atrimmed-unmapped-pre.fastq.gz, in=02-chunkify_fastqs/inplanta-3KO-022-004-R1-atrimmed.fastq, in2=02-chunkify_fastqs/inplanta-3KO-022-004-R2-atrimmed.fastq, ambiguous2=best, maxindel=20000, refstats=03-split_by_reference/inplanta-3KO-022-004-R1-atrimmed.fastq-atrimmed-refstats.tsv, scafstats=03-split_by_reference/inplanta-3KO-022-004-R1-atrimmed.fastq-atrimmed-scafstats.tsv]

Merged reference file 03-split_by_reference/index/ref/genome/1/merged_ref_7744785918.fa.gz already exists; skipping merge.
Ref merge time:     	0.085 seconds.
Executing align2.BBMap [ow=t, fastareadlen=500, minhits=1, minratio=0.56, maxindel=20, qtrim=rl, untrim=t, trimq=6, k=13, untrim=t, ambiguous=all, build=1, outu=03-split_by_reference/inplanta-3KO-022-004-R1-atrimmed.fastq-R#-atrimmed-unmapped-pre.fastq.gz, in=02-chunkify_fastqs/inplanta-3KO-022-004-R1-atrimmed.fastq, in2=02-chunkify_fastqs/inplanta-3KO-022-004-R2-atrimmed.fastq, ambiguous2=best, maxindel=20000, refstats=03-split_by_reference/inplanta-3KO-022-004-R1-atrimmed.fastq-atrimmed-refstats.tsv, scafstats=03-split_by_reference/inplanta-3KO-022-004-R1-atrimmed.fastq-atrimmed-scafstats.tsv, ref=03-split_by_reference/index/ref/genome/1/merged_ref_7744785918.fa.gz, out_ta=03-split_by_reference/inplanta-3KO-022-004-R1-atrimmed.fastq-R#-atrimmed-ta-pre.fastq.gz, out_pn=03-split_by_reference/inplanta-3KO-022-004-R1-atrimmed.fastq-R#-atrimmed-pn-pre.fastq.gz]

BBMap version 36.67
Set MINIMUM_ALIGNMENT_SCORE_RATIO to 0.560
Reference set statistics will be written to 03-split_by_reference/inplanta-3KO-022-004-R1-atrimmed.fastq-atrimmed-refstats.tsv
Scaffold statistics will be written to 03-split_by_reference/inplanta-3KO-022-004-R1-atrimmed.fastq-atrimmed-scafstats.tsv
Retaining all best sites for ambiguous mappings.
NOTE:	Ignoring reference file because it already appears to have been processed.
NOTE:	If you wish to regenerate the index, please manually delete 03-split_by_reference/index/ref/genome/1/summary.txt
Set genome to 1

Loaded Reference:	12.207 seconds.
Loading index for chunk 1-26, build 1
Generated Index:	43.635 seconds.
Analyzed Index:   	28.544 seconds.
Reads that map to multiple references will be written to the first reference's stream only.
Started output stream:	0.707 seconds.
Creating ref-set statistics table:    	0.149 seconds.
Creating scaffold statistics table:   	10.208 seconds.
Cleared Memory:    	8.772 seconds.
Processing reads in paired-ended mode.
Started read stream.
Started 16 mapping threads.
Detecting finished threads: 0, 1, 2, 3, 4, 5, 6, 7, 8, 9, 10, 11, 12, 13, 14, 15

   ------------------   Results   ------------------   

Genome:                	1
Key Length:            	13
Max Indel:             	20000
Minimum Score Ratio:  	0.56
Mapping Mode:         	normal
Reads Used:           	80000000	(9569526911 bases)

Mapping:          	14175.453 seconds.
Reads/sec:       	5643.56
kBases/sec:      	675.08


Pairing data:   	pct reads	num reads 	pct bases	   num bases

mated pairs:     	 93.6412% 	 37456472 	 94.5000% 	  9043198402
bad pairs:       	  3.9664% 	  1586552 	  4.0506% 	   387624156
insert size avg: 	  195.37


Read 1 data:      	pct reads	num reads 	pct bases	   num bases

mapped:          	 99.1015% 	 39640587 	 99.1436% 	  4782535120
unambiguous:     	 84.2664% 	 33706550 	 84.5272% 	  4077465291
ambiguous:       	 14.8351% 	  5934037 	 14.6163% 	   705069829
low-Q discards:  	  0.0654% 	    26149 	  0.0325% 	     1568932

perfect best site:	 49.0920% 	 19636799 	 49.1621% 	  2371504487
semiperfect site:	 49.4303% 	 19772128 	 49.5086% 	  2388220605
rescued:         	  3.5194% 	  1407773

Match Rate:      	      NA 	       NA 	 52.7300% 	  4747376308
Error Rate:      	 50.2939% 	 19936799 	 47.2597% 	  4254871463
Sub Rate:        	 32.0665% 	 12711350 	  0.3429% 	    30867974
Del Rate:        	 26.5301% 	 10516707 	 46.8795% 	  4220644907
Ins Rate:        	  2.0085% 	   796195 	  0.0373% 	     3358582
N Rate:          	  0.2967% 	   117612 	  0.0104% 	      932256


Read 2 data:      	pct reads	num reads 	pct bases	   num bases

mapped:          	 97.7946% 	 39117822 	 98.4835% 	  4673710595
unambiguous:     	 82.9937% 	 33197483 	 83.8202% 	  3977836485
ambiguous:       	 14.8008% 	  5920339 	 14.6633% 	   695874110
low-Q discards:  	  1.2841% 	   513652 	  0.6494% 	    30819115

perfect best site:	 47.5517% 	 19020694 	 48.2497% 	  2289778529
semiperfect site:	 47.9145% 	 19165783 	 48.6267% 	  2307667699
rescued:         	  4.4194% 	  1767744

Match Rate:      	      NA 	       NA 	 51.4901% 	  4638089518
Error Rate:      	 51.1133% 	 19994400 	 48.5005% 	  4368790964
Sub Rate:        	 31.9255% 	 12488555 	  0.3519% 	    31701401
Del Rate:        	 27.3460% 	 10697177 	 48.1145% 	  4334020524
Ins Rate:        	  1.9248% 	   752931 	  0.0341% 	     3069039
N Rate:          	  0.5000% 	   195602 	  0.0094% 	      850637

Total time:     	14281.463 seconds.
java -Djava.library.path=/home/darcyabjones/local/bbmap/36.67-bin/jni/ -ea -Xmx219986m -cp /home/darcyabjones/local/bbmap/36.67-bin/current/ align2.BBSplitter ow=t fastareadlen=500 minhits=1 minratio=0.56 maxindel=20 qtrim=rl untrim=t trimq=6 k=13 untrim=t ambiguous=all path=03-split_by_reference/index build=1 basename=03-split_by_reference/inplanta-3KO-022-005-R1-atrimmed.fastq-R#-atrimmed-%-pre.fastq.gz outu=03-split_by_reference/inplanta-3KO-022-005-R1-atrimmed.fastq-R#-atrimmed-unmapped-pre.fastq.gz in=02-chunkify_fastqs/inplanta-3KO-022-005-R1-atrimmed.fastq in2=02-chunkify_fastqs/inplanta-3KO-022-005-R2-atrimmed.fastq ambiguous2=best maxindel=20000 refstats=03-split_by_reference/inplanta-3KO-022-005-R1-atrimmed.fastq-atrimmed-refstats.tsv scafstats=03-split_by_reference/inplanta-3KO-022-005-R1-atrimmed.fastq-atrimmed-scafstats.tsv
Executing align2.BBSplitter [ow=t, fastareadlen=500, minhits=1, minratio=0.56, maxindel=20, qtrim=rl, untrim=t, trimq=6, k=13, untrim=t, ambiguous=all, path=03-split_by_reference/index, build=1, basename=03-split_by_reference/inplanta-3KO-022-005-R1-atrimmed.fastq-R#-atrimmed-%-pre.fastq.gz, outu=03-split_by_reference/inplanta-3KO-022-005-R1-atrimmed.fastq-R#-atrimmed-unmapped-pre.fastq.gz, in=02-chunkify_fastqs/inplanta-3KO-022-005-R1-atrimmed.fastq, in2=02-chunkify_fastqs/inplanta-3KO-022-005-R2-atrimmed.fastq, ambiguous2=best, maxindel=20000, refstats=03-split_by_reference/inplanta-3KO-022-005-R1-atrimmed.fastq-atrimmed-refstats.tsv, scafstats=03-split_by_reference/inplanta-3KO-022-005-R1-atrimmed.fastq-atrimmed-scafstats.tsv]

Merged reference file 03-split_by_reference/index/ref/genome/1/merged_ref_7744785918.fa.gz already exists; skipping merge.
Ref merge time:     	0.089 seconds.
Executing align2.BBMap [ow=t, fastareadlen=500, minhits=1, minratio=0.56, maxindel=20, qtrim=rl, untrim=t, trimq=6, k=13, untrim=t, ambiguous=all, build=1, outu=03-split_by_reference/inplanta-3KO-022-005-R1-atrimmed.fastq-R#-atrimmed-unmapped-pre.fastq.gz, in=02-chunkify_fastqs/inplanta-3KO-022-005-R1-atrimmed.fastq, in2=02-chunkify_fastqs/inplanta-3KO-022-005-R2-atrimmed.fastq, ambiguous2=best, maxindel=20000, refstats=03-split_by_reference/inplanta-3KO-022-005-R1-atrimmed.fastq-atrimmed-refstats.tsv, scafstats=03-split_by_reference/inplanta-3KO-022-005-R1-atrimmed.fastq-atrimmed-scafstats.tsv, ref=03-split_by_reference/index/ref/genome/1/merged_ref_7744785918.fa.gz, out_ta=03-split_by_reference/inplanta-3KO-022-005-R1-atrimmed.fastq-R#-atrimmed-ta-pre.fastq.gz, out_pn=03-split_by_reference/inplanta-3KO-022-005-R1-atrimmed.fastq-R#-atrimmed-pn-pre.fastq.gz]

BBMap version 36.67
Set MINIMUM_ALIGNMENT_SCORE_RATIO to 0.560
Reference set statistics will be written to 03-split_by_reference/inplanta-3KO-022-005-R1-atrimmed.fastq-atrimmed-refstats.tsv
Scaffold statistics will be written to 03-split_by_reference/inplanta-3KO-022-005-R1-atrimmed.fastq-atrimmed-scafstats.tsv
Retaining all best sites for ambiguous mappings.
NOTE:	Ignoring reference file because it already appears to have been processed.
NOTE:	If you wish to regenerate the index, please manually delete 03-split_by_reference/index/ref/genome/1/summary.txt
Set genome to 1

Loaded Reference:	13.688 seconds.
Loading index for chunk 1-26, build 1
Generated Index:	44.846 seconds.
Analyzed Index:   	29.358 seconds.
Reads that map to multiple references will be written to the first reference's stream only.
Started output stream:	0.798 seconds.
Creating ref-set statistics table:    	10.136 seconds.
Creating scaffold statistics table:   	0.705 seconds.
Cleared Memory:    	8.782 seconds.
Processing reads in paired-ended mode.
Started read stream.
Started 16 mapping threads.
Detecting finished threads: 0, 1, 2, 3, 4, 5, 6, 7, 8, 9, 10, 11, 12, 13, 14, 15

   ------------------   Results   ------------------   

Genome:                	1
Key Length:            	13
Max Indel:             	20000
Minimum Score Ratio:  	0.56
Mapping Mode:         	normal
Reads Used:           	80000000	(9571209890 bases)

Mapping:          	14113.744 seconds.
Reads/sec:       	5668.23
kBases/sec:      	678.15


Pairing data:   	pct reads	num reads 	pct bases	   num bases

mated pairs:     	 93.4318% 	 37372703 	 94.3406% 	  9029538702
bad pairs:       	  4.0028% 	  1601127 	  4.0895% 	   391410488
insert size avg: 	  196.43


Read 1 data:      	pct reads	num reads 	pct bases	   num bases

mapped:          	 99.0802% 	 39632083 	 99.1302% 	  4785110624
unambiguous:     	 84.1913% 	 33676507 	 84.4506% 	  4076512325
ambiguous:       	 14.8889% 	  5955576 	 14.6796% 	   708598299
low-Q discards:  	  0.0790% 	    31596 	  0.0393% 	     1895760

perfect best site:	 46.6948% 	 18677902 	 46.7020% 	  2254351555
semiperfect site:	 47.0157% 	 18806287 	 47.0305% 	  2270209616
rescued:         	  3.6139% 	  1445542

Match Rate:      	      NA 	       NA 	 52.7796% 	  4747639018
Error Rate:      	 52.7423% 	 20902856 	 47.2110% 	  4246729862
Sub Rate:        	 35.4093% 	 14033455 	  0.3689% 	    33184750
Del Rate:        	 26.5299% 	 10514356 	 46.8038% 	  4210106440
Ins Rate:        	  2.0430% 	   809701 	  0.0382% 	     3438672
N Rate:          	  0.2401% 	    95142 	  0.0094% 	      848184


Read 2 data:      	pct reads	num reads 	pct bases	   num bases

mapped:          	 97.6371% 	 39054827 	 98.4006% 	  4668238191
unambiguous:     	 82.7971% 	 33118859 	 83.6864% 	  3970177923
ambiguous:       	 14.8399% 	  5935968 	 14.7142% 	   698060268
low-Q discards:  	  1.4200% 	   567986 	  0.7183% 	    34079154

perfect best site:	 45.4388% 	 18175520 	 46.1483% 	  2189325940
semiperfect site:	 45.7819% 	 18312757 	 46.5052% 	  2206261577
rescued:         	  4.5373% 	  1814916

Match Rate:      	      NA 	       NA 	 51.4868% 	  4630897048
Error Rate:      	 53.3133% 	 20821420 	 48.5041% 	  4362621173
Sub Rate:        	 34.9874% 	 13664278 	  0.3720% 	    33462952
Del Rate:        	 27.3452% 	 10679638 	 48.0980% 	  4326094465
Ins Rate:        	  1.9319% 	   754501 	  0.0341% 	     3063756
N Rate:          	  0.2975% 	   116169 	  0.0091% 	      814435

Total time:     	14223.884 seconds.
java -Djava.library.path=/home/darcyabjones/local/bbmap/36.67-bin/jni/ -ea -Xmx219986m -cp /home/darcyabjones/local/bbmap/36.67-bin/current/ align2.BBSplitter ow=t fastareadlen=500 minhits=1 minratio=0.56 maxindel=20 qtrim=rl untrim=t trimq=6 k=13 untrim=t ambiguous=all path=03-split_by_reference/index build=1 basename=03-split_by_reference/inplanta-3KO-022-006-R1-atrimmed.fastq-R#-atrimmed-%-pre.fastq.gz outu=03-split_by_reference/inplanta-3KO-022-006-R1-atrimmed.fastq-R#-atrimmed-unmapped-pre.fastq.gz in=02-chunkify_fastqs/inplanta-3KO-022-006-R1-atrimmed.fastq in2=02-chunkify_fastqs/inplanta-3KO-022-006-R2-atrimmed.fastq ambiguous2=best maxindel=20000 refstats=03-split_by_reference/inplanta-3KO-022-006-R1-atrimmed.fastq-atrimmed-refstats.tsv scafstats=03-split_by_reference/inplanta-3KO-022-006-R1-atrimmed.fastq-atrimmed-scafstats.tsv
Executing align2.BBSplitter [ow=t, fastareadlen=500, minhits=1, minratio=0.56, maxindel=20, qtrim=rl, untrim=t, trimq=6, k=13, untrim=t, ambiguous=all, path=03-split_by_reference/index, build=1, basename=03-split_by_reference/inplanta-3KO-022-006-R1-atrimmed.fastq-R#-atrimmed-%-pre.fastq.gz, outu=03-split_by_reference/inplanta-3KO-022-006-R1-atrimmed.fastq-R#-atrimmed-unmapped-pre.fastq.gz, in=02-chunkify_fastqs/inplanta-3KO-022-006-R1-atrimmed.fastq, in2=02-chunkify_fastqs/inplanta-3KO-022-006-R2-atrimmed.fastq, ambiguous2=best, maxindel=20000, refstats=03-split_by_reference/inplanta-3KO-022-006-R1-atrimmed.fastq-atrimmed-refstats.tsv, scafstats=03-split_by_reference/inplanta-3KO-022-006-R1-atrimmed.fastq-atrimmed-scafstats.tsv]

Merged reference file 03-split_by_reference/index/ref/genome/1/merged_ref_7744785918.fa.gz already exists; skipping merge.
Ref merge time:     	0.206 seconds.
Executing align2.BBMap [ow=t, fastareadlen=500, minhits=1, minratio=0.56, maxindel=20, qtrim=rl, untrim=t, trimq=6, k=13, untrim=t, ambiguous=all, build=1, outu=03-split_by_reference/inplanta-3KO-022-006-R1-atrimmed.fastq-R#-atrimmed-unmapped-pre.fastq.gz, in=02-chunkify_fastqs/inplanta-3KO-022-006-R1-atrimmed.fastq, in2=02-chunkify_fastqs/inplanta-3KO-022-006-R2-atrimmed.fastq, ambiguous2=best, maxindel=20000, refstats=03-split_by_reference/inplanta-3KO-022-006-R1-atrimmed.fastq-atrimmed-refstats.tsv, scafstats=03-split_by_reference/inplanta-3KO-022-006-R1-atrimmed.fastq-atrimmed-scafstats.tsv, ref=03-split_by_reference/index/ref/genome/1/merged_ref_7744785918.fa.gz, out_ta=03-split_by_reference/inplanta-3KO-022-006-R1-atrimmed.fastq-R#-atrimmed-ta-pre.fastq.gz, out_pn=03-split_by_reference/inplanta-3KO-022-006-R1-atrimmed.fastq-R#-atrimmed-pn-pre.fastq.gz]

BBMap version 36.67
Set MINIMUM_ALIGNMENT_SCORE_RATIO to 0.560
Reference set statistics will be written to 03-split_by_reference/inplanta-3KO-022-006-R1-atrimmed.fastq-atrimmed-refstats.tsv
Scaffold statistics will be written to 03-split_by_reference/inplanta-3KO-022-006-R1-atrimmed.fastq-atrimmed-scafstats.tsv
Retaining all best sites for ambiguous mappings.
NOTE:	Ignoring reference file because it already appears to have been processed.
NOTE:	If you wish to regenerate the index, please manually delete 03-split_by_reference/index/ref/genome/1/summary.txt
Set genome to 1

Loaded Reference:	9.910 seconds.
Loading index for chunk 1-26, build 1
Generated Index:	45.335 seconds.
Analyzed Index:   	31.200 seconds.
Reads that map to multiple references will be written to the first reference's stream only.
Started output stream:	0.211 seconds.
Creating ref-set statistics table:    	10.100 seconds.
Creating scaffold statistics table:   	9.149 seconds.
Cleared Memory:    	1.031 seconds.
Processing reads in paired-ended mode.
Started read stream.
Started 16 mapping threads.
Detecting finished threads: 0, 1, 2, 3, 4, 5, 6, 7, 8, 9, 10, 11, 12, 13, 14, 15

   ------------------   Results   ------------------   

Genome:                	1
Key Length:            	13
Max Indel:             	20000
Minimum Score Ratio:  	0.56
Mapping Mode:         	normal
Reads Used:           	80000000	(9565124135 bases)

Mapping:          	13942.239 seconds.
Reads/sec:       	5737.96
kBases/sec:      	686.05


Pairing data:   	pct reads	num reads 	pct bases	   num bases

mated pairs:     	 93.2410% 	 37296401 	 94.1916% 	  9009547524
bad pairs:       	  3.9499% 	  1579960 	  4.0382% 	   386257084
insert size avg: 	  195.13


Read 1 data:      	pct reads	num reads 	pct bases	   num bases

mapped:          	 99.0610% 	 39624403 	 99.1286% 	  4783552328
unambiguous:     	 84.2029% 	 33681153 	 84.4801% 	  4076673897
ambiguous:       	 14.8581% 	  5943250 	 14.6485% 	   706878431
low-Q discards:  	  0.1110% 	    44403 	  0.0552% 	     2664180

perfect best site:	 48.3493% 	 19339722 	 48.3869% 	  2334961076
semiperfect site:	 48.6851% 	 19474054 	 48.7310% 	  2351563829
rescued:         	  3.4673% 	  1386930

Match Rate:      	      NA 	       NA 	 52.6887% 	  4747974423
Error Rate:      	 51.0247% 	 20218251 	 47.3003% 	  4262403380
Sub Rate:        	 32.9826% 	 13069145 	  0.3461% 	    31192022
Del Rate:        	 26.6147% 	 10545905 	 46.9165% 	  4227813947
Ins Rate:        	  2.0270% 	   803193 	  0.0377% 	     3397411
N Rate:          	  0.2932% 	   116159 	  0.0110% 	      988472


Read 2 data:      	pct reads	num reads 	pct bases	   num bases

mapped:          	 97.4249% 	 38969963 	 98.2975% 	  4658830241
unambiguous:     	 82.6611% 	 33064430 	 83.6440% 	  3964326327
ambiguous:       	 14.7638% 	  5905533 	 14.6535% 	   694503914
low-Q discards:  	  1.6515% 	   660617 	  0.8363% 	    39636997

perfect best site:	 48.3320% 	 19332797 	 49.1252% 	  2328297650
semiperfect site:	 48.6971% 	 19478844 	 49.5055% 	  2346323396
rescued:         	  4.3363% 	  1734524

Match Rate:      	      NA 	       NA 	 51.3848% 	  4624341284
Error Rate:      	 50.2151% 	 19568817 	 48.6059% 	  4374248068
Sub Rate:        	 30.5693% 	 11912855 	  0.3401% 	    30607159
Del Rate:        	 27.4690% 	 10704645 	 48.2319% 	  4340595270
Ins Rate:        	  1.9229% 	   749363 	  0.0338% 	     3045639
N Rate:          	  0.3383% 	   131821 	  0.0093% 	      836159

Total time:     	14050.736 seconds.
java -Djava.library.path=/home/darcyabjones/local/bbmap/36.67-bin/jni/ -ea -Xmx219986m -cp /home/darcyabjones/local/bbmap/36.67-bin/current/ align2.BBSplitter ow=t fastareadlen=500 minhits=1 minratio=0.56 maxindel=20 qtrim=rl untrim=t trimq=6 k=13 untrim=t ambiguous=all path=03-split_by_reference/index build=1 basename=03-split_by_reference/inplanta-3KO-022-007-R1-atrimmed.fastq-R#-atrimmed-%-pre.fastq.gz outu=03-split_by_reference/inplanta-3KO-022-007-R1-atrimmed.fastq-R#-atrimmed-unmapped-pre.fastq.gz in=02-chunkify_fastqs/inplanta-3KO-022-007-R1-atrimmed.fastq in2=02-chunkify_fastqs/inplanta-3KO-022-007-R2-atrimmed.fastq ambiguous2=best maxindel=20000 refstats=03-split_by_reference/inplanta-3KO-022-007-R1-atrimmed.fastq-atrimmed-refstats.tsv scafstats=03-split_by_reference/inplanta-3KO-022-007-R1-atrimmed.fastq-atrimmed-scafstats.tsv
Executing align2.BBSplitter [ow=t, fastareadlen=500, minhits=1, minratio=0.56, maxindel=20, qtrim=rl, untrim=t, trimq=6, k=13, untrim=t, ambiguous=all, path=03-split_by_reference/index, build=1, basename=03-split_by_reference/inplanta-3KO-022-007-R1-atrimmed.fastq-R#-atrimmed-%-pre.fastq.gz, outu=03-split_by_reference/inplanta-3KO-022-007-R1-atrimmed.fastq-R#-atrimmed-unmapped-pre.fastq.gz, in=02-chunkify_fastqs/inplanta-3KO-022-007-R1-atrimmed.fastq, in2=02-chunkify_fastqs/inplanta-3KO-022-007-R2-atrimmed.fastq, ambiguous2=best, maxindel=20000, refstats=03-split_by_reference/inplanta-3KO-022-007-R1-atrimmed.fastq-atrimmed-refstats.tsv, scafstats=03-split_by_reference/inplanta-3KO-022-007-R1-atrimmed.fastq-atrimmed-scafstats.tsv]

Merged reference file 03-split_by_reference/index/ref/genome/1/merged_ref_7744785918.fa.gz already exists; skipping merge.
Ref merge time:     	0.026 seconds.
Executing align2.BBMap [ow=t, fastareadlen=500, minhits=1, minratio=0.56, maxindel=20, qtrim=rl, untrim=t, trimq=6, k=13, untrim=t, ambiguous=all, build=1, outu=03-split_by_reference/inplanta-3KO-022-007-R1-atrimmed.fastq-R#-atrimmed-unmapped-pre.fastq.gz, in=02-chunkify_fastqs/inplanta-3KO-022-007-R1-atrimmed.fastq, in2=02-chunkify_fastqs/inplanta-3KO-022-007-R2-atrimmed.fastq, ambiguous2=best, maxindel=20000, refstats=03-split_by_reference/inplanta-3KO-022-007-R1-atrimmed.fastq-atrimmed-refstats.tsv, scafstats=03-split_by_reference/inplanta-3KO-022-007-R1-atrimmed.fastq-atrimmed-scafstats.tsv, ref=03-split_by_reference/index/ref/genome/1/merged_ref_7744785918.fa.gz, out_ta=03-split_by_reference/inplanta-3KO-022-007-R1-atrimmed.fastq-R#-atrimmed-ta-pre.fastq.gz, out_pn=03-split_by_reference/inplanta-3KO-022-007-R1-atrimmed.fastq-R#-atrimmed-pn-pre.fastq.gz]

BBMap version 36.67
Set MINIMUM_ALIGNMENT_SCORE_RATIO to 0.560
Reference set statistics will be written to 03-split_by_reference/inplanta-3KO-022-007-R1-atrimmed.fastq-atrimmed-refstats.tsv
Scaffold statistics will be written to 03-split_by_reference/inplanta-3KO-022-007-R1-atrimmed.fastq-atrimmed-scafstats.tsv
Retaining all best sites for ambiguous mappings.
NOTE:	Ignoring reference file because it already appears to have been processed.
NOTE:	If you wish to regenerate the index, please manually delete 03-split_by_reference/index/ref/genome/1/summary.txt
Set genome to 1

Loaded Reference:	9.894 seconds.
Loading index for chunk 1-26, build 1
Generated Index:	49.070 seconds.
Analyzed Index:   	30.016 seconds.
Reads that map to multiple references will be written to the first reference's stream only.
Started output stream:	0.149 seconds.
Creating ref-set statistics table:    	0.112 seconds.
Creating scaffold statistics table:   	18.864 seconds.
Cleared Memory:    	1.028 seconds.
Processing reads in paired-ended mode.
Started read stream.
Started 16 mapping threads.
Detecting finished threads: 0, 1, 2, 3, 4, 5, 6, 7, 8, 9, 10, 11, 12, 13, 14, 15

   ------------------   Results   ------------------   

Genome:                	1
Key Length:            	13
Max Indel:             	20000
Minimum Score Ratio:  	0.56
Mapping Mode:         	normal
Reads Used:           	80000000	(9565561700 bases)

Mapping:          	13995.293 seconds.
Reads/sec:       	5716.21
kBases/sec:      	683.48


Pairing data:   	pct reads	num reads 	pct bases	   num bases

mated pairs:     	 93.3116% 	 37324624 	 94.2458% 	  9015135928
bad pairs:       	  3.9674% 	  1586975 	  4.0546% 	   387846336
insert size avg: 	  195.80


Read 1 data:      	pct reads	num reads 	pct bases	   num bases

mapped:          	 99.0482% 	 39619284 	 99.1196% 	  4781893370
unambiguous:     	 84.2343% 	 33693731 	 84.5196% 	  4077535766
ambiguous:       	 14.8139% 	  5925553 	 14.6000% 	   704357604
low-Q discards:  	  0.1176% 	    47054 	  0.0585% 	     2823240

perfect best site:	 49.2098% 	 19683913 	 49.2870% 	  2377784732
semiperfect site:	 49.5562% 	 19822485 	 49.6420% 	  2394910937
rescued:         	  3.4441% 	  1377620

Match Rate:      	      NA 	       NA 	 52.6774% 	  4747048235
Error Rate:      	 50.1341% 	 19862794 	 47.3109% 	  4263443538
Sub Rate:        	 31.8228% 	 12607957 	  0.3379% 	    30454301
Del Rate:        	 26.5674% 	 10525806 	 46.9359% 	  4229646171
Ins Rate:        	  2.0023% 	   793304 	  0.0371% 	     3343066
N Rate:          	  0.3184% 	   126149 	  0.0116% 	     1047768


Read 2 data:      	pct reads	num reads 	pct bases	   num bases

mapped:          	 97.5150% 	 39006016 	 98.3419% 	  4662578771
unambiguous:     	 82.7804% 	 33112141 	 83.7275% 	  3969681892
ambiguous:       	 14.7347% 	  5893875 	 14.6144% 	   692896879
low-Q discards:  	  1.5560% 	   622404 	  0.7877% 	    37344234

perfect best site:	 48.9897% 	 19595872 	 49.7797% 	  2360152086
semiperfect site:	 49.3664% 	 19746560 	 50.1719% 	  2378744997
rescued:         	  4.2977% 	  1719098

Match Rate:      	      NA 	       NA 	 51.4374% 	  4628527775
Error Rate:      	 49.5871% 	 19341972 	 48.5537% 	  4369043311
Sub Rate:        	 29.7914% 	 11620434 	  0.3358% 	    30216189
Del Rate:        	 27.3893% 	 10683494 	 48.1842% 	  4335790398
Ins Rate:        	  1.9163% 	   747487 	  0.0337% 	     3036724
N Rate:          	  0.3327% 	   129788 	  0.0089% 	      798083

Total time:     	14106.039 seconds.
java -Djava.library.path=/home/darcyabjones/local/bbmap/36.67-bin/jni/ -ea -Xmx219986m -cp /home/darcyabjones/local/bbmap/36.67-bin/current/ align2.BBSplitter ow=t fastareadlen=500 minhits=1 minratio=0.56 maxindel=20 qtrim=rl untrim=t trimq=6 k=13 untrim=t ambiguous=all path=03-split_by_reference/index build=1 basename=03-split_by_reference/inplanta-3KO-022-008-R1-atrimmed.fastq-R#-atrimmed-%-pre.fastq.gz outu=03-split_by_reference/inplanta-3KO-022-008-R1-atrimmed.fastq-R#-atrimmed-unmapped-pre.fastq.gz in=02-chunkify_fastqs/inplanta-3KO-022-008-R1-atrimmed.fastq in2=02-chunkify_fastqs/inplanta-3KO-022-008-R2-atrimmed.fastq ambiguous2=best maxindel=20000 refstats=03-split_by_reference/inplanta-3KO-022-008-R1-atrimmed.fastq-atrimmed-refstats.tsv scafstats=03-split_by_reference/inplanta-3KO-022-008-R1-atrimmed.fastq-atrimmed-scafstats.tsv
Executing align2.BBSplitter [ow=t, fastareadlen=500, minhits=1, minratio=0.56, maxindel=20, qtrim=rl, untrim=t, trimq=6, k=13, untrim=t, ambiguous=all, path=03-split_by_reference/index, build=1, basename=03-split_by_reference/inplanta-3KO-022-008-R1-atrimmed.fastq-R#-atrimmed-%-pre.fastq.gz, outu=03-split_by_reference/inplanta-3KO-022-008-R1-atrimmed.fastq-R#-atrimmed-unmapped-pre.fastq.gz, in=02-chunkify_fastqs/inplanta-3KO-022-008-R1-atrimmed.fastq, in2=02-chunkify_fastqs/inplanta-3KO-022-008-R2-atrimmed.fastq, ambiguous2=best, maxindel=20000, refstats=03-split_by_reference/inplanta-3KO-022-008-R1-atrimmed.fastq-atrimmed-refstats.tsv, scafstats=03-split_by_reference/inplanta-3KO-022-008-R1-atrimmed.fastq-atrimmed-scafstats.tsv]

Merged reference file 03-split_by_reference/index/ref/genome/1/merged_ref_7744785918.fa.gz already exists; skipping merge.
Ref merge time:     	0.028 seconds.
Executing align2.BBMap [ow=t, fastareadlen=500, minhits=1, minratio=0.56, maxindel=20, qtrim=rl, untrim=t, trimq=6, k=13, untrim=t, ambiguous=all, build=1, outu=03-split_by_reference/inplanta-3KO-022-008-R1-atrimmed.fastq-R#-atrimmed-unmapped-pre.fastq.gz, in=02-chunkify_fastqs/inplanta-3KO-022-008-R1-atrimmed.fastq, in2=02-chunkify_fastqs/inplanta-3KO-022-008-R2-atrimmed.fastq, ambiguous2=best, maxindel=20000, refstats=03-split_by_reference/inplanta-3KO-022-008-R1-atrimmed.fastq-atrimmed-refstats.tsv, scafstats=03-split_by_reference/inplanta-3KO-022-008-R1-atrimmed.fastq-atrimmed-scafstats.tsv, ref=03-split_by_reference/index/ref/genome/1/merged_ref_7744785918.fa.gz, out_ta=03-split_by_reference/inplanta-3KO-022-008-R1-atrimmed.fastq-R#-atrimmed-ta-pre.fastq.gz, out_pn=03-split_by_reference/inplanta-3KO-022-008-R1-atrimmed.fastq-R#-atrimmed-pn-pre.fastq.gz]

BBMap version 36.67
Set MINIMUM_ALIGNMENT_SCORE_RATIO to 0.560
Reference set statistics will be written to 03-split_by_reference/inplanta-3KO-022-008-R1-atrimmed.fastq-atrimmed-refstats.tsv
Scaffold statistics will be written to 03-split_by_reference/inplanta-3KO-022-008-R1-atrimmed.fastq-atrimmed-scafstats.tsv
Retaining all best sites for ambiguous mappings.
NOTE:	Ignoring reference file because it already appears to have been processed.
NOTE:	If you wish to regenerate the index, please manually delete 03-split_by_reference/index/ref/genome/1/summary.txt
Set genome to 1

Loaded Reference:	9.533 seconds.
Loading index for chunk 1-26, build 1
Generated Index:	44.376 seconds.
Analyzed Index:   	29.337 seconds.
Reads that map to multiple references will be written to the first reference's stream only.
Started output stream:	0.306 seconds.
Creating ref-set statistics table:    	0.117 seconds.
Creating scaffold statistics table:   	19.070 seconds.
Cleared Memory:    	0.992 seconds.
Processing reads in paired-ended mode.
Started read stream.
Started 16 mapping threads.
Detecting finished threads: 0, 1, 2, 3, 4, 5, 6, 7, 8, 9, 10, 11, 12, 13, 14, 15

   ------------------   Results   ------------------   

Genome:                	1
Key Length:            	13
Max Indel:             	20000
Minimum Score Ratio:  	0.56
Mapping Mode:         	normal
Reads Used:           	49910068	(5980627633 bases)

Mapping:          	8703.917 seconds.
Reads/sec:       	5734.21
kBases/sec:      	687.12


Pairing data:   	pct reads	num reads 	pct bases	   num bases

mated pairs:     	 93.7584% 	 23397444 	 94.6031% 	  5657859820
bad pairs:       	  3.9591% 	   987989 	  4.0455% 	   241947038
insert size avg: 	  195.54


Read 1 data:      	pct reads	num reads 	pct bases	   num bases

mapped:          	 99.1013% 	 24730767 	 99.1396% 	  2988501941
unambiguous:     	 84.3480% 	 21049083 	 84.6020% 	  2550274072
ambiguous:       	 14.7533% 	  3681684 	 14.5376% 	   438227869
low-Q discards:  	  0.0617% 	    15388 	  0.0306% 	      923280

perfect best site:	 48.9980% 	 12227457 	 49.0446% 	  1478419955
semiperfect site:	 49.3457% 	 12314242 	 49.4007% 	  1489153136
rescued:         	  3.4612% 	   863738

Match Rate:      	      NA 	       NA 	 52.7573% 	  2966527106
Error Rate:      	 50.3711% 	 12457152 	 47.2318% 	  2655828265
Sub Rate:        	 32.1880% 	  7960330 	  0.3425% 	    19257017
Del Rate:        	 26.5360% 	  6562562 	 46.8519% 	  2634464223
Ins Rate:        	  2.0191% 	   499336 	  0.0375% 	     2107025
N Rate:          	  0.3263% 	    80692 	  0.0109% 	      610793


Read 2 data:      	pct reads	num reads 	pct bases	   num bases

mapped:          	 97.8891% 	 24428254 	 98.5336% 	  2922692150
unambiguous:     	 83.1404% 	 20747716 	 83.9267% 	  2489424859
ambiguous:       	 14.7487% 	  3680538 	 14.6069% 	   433267291
low-Q discards:  	  1.1967% 	   298636 	  0.6041% 	    17918148

perfect best site:	 49.7966% 	 12426762 	 50.4719% 	  1497090904
semiperfect site:	 50.1759% 	 12521410 	 50.8656% 	  1508768505
rescued:         	  4.3278% 	  1080001

Match Rate:      	      NA 	       NA 	 51.5549% 	  2901676906
Error Rate:      	 48.9391% 	 11954962 	 48.4358% 	  2726126108
Sub Rate:        	 29.0103% 	  7086714 	  0.3301% 	    18576315
Del Rate:        	 27.3391% 	  6678459 	 48.0718% 	  2705635792
Ins Rate:        	  1.9233% 	   469838 	  0.0340% 	     1914001
N Rate:          	  0.3630% 	    88679 	  0.0093% 	      524928

Total time:     	8809.253 seconds.
java -Djava.library.path=/home/darcyabjones/local/bbmap/36.67-bin/jni/ -ea -Xmx219986m -cp /home/darcyabjones/local/bbmap/36.67-bin/current/ align2.BBSplitter ow=t fastareadlen=500 minhits=1 minratio=0.56 maxindel=20 qtrim=rl untrim=t trimq=6 k=13 untrim=t ambiguous=all path=03-split_by_reference/index build=1 basename=03-split_by_reference/inplanta-3KO-023-001-R1-atrimmed.fastq-R#-atrimmed-%-pre.fastq.gz outu=03-split_by_reference/inplanta-3KO-023-001-R1-atrimmed.fastq-R#-atrimmed-unmapped-pre.fastq.gz in=02-chunkify_fastqs/inplanta-3KO-023-001-R1-atrimmed.fastq in2=02-chunkify_fastqs/inplanta-3KO-023-001-R2-atrimmed.fastq ambiguous2=best maxindel=20000 refstats=03-split_by_reference/inplanta-3KO-023-001-R1-atrimmed.fastq-atrimmed-refstats.tsv scafstats=03-split_by_reference/inplanta-3KO-023-001-R1-atrimmed.fastq-atrimmed-scafstats.tsv
Executing align2.BBSplitter [ow=t, fastareadlen=500, minhits=1, minratio=0.56, maxindel=20, qtrim=rl, untrim=t, trimq=6, k=13, untrim=t, ambiguous=all, path=03-split_by_reference/index, build=1, basename=03-split_by_reference/inplanta-3KO-023-001-R1-atrimmed.fastq-R#-atrimmed-%-pre.fastq.gz, outu=03-split_by_reference/inplanta-3KO-023-001-R1-atrimmed.fastq-R#-atrimmed-unmapped-pre.fastq.gz, in=02-chunkify_fastqs/inplanta-3KO-023-001-R1-atrimmed.fastq, in2=02-chunkify_fastqs/inplanta-3KO-023-001-R2-atrimmed.fastq, ambiguous2=best, maxindel=20000, refstats=03-split_by_reference/inplanta-3KO-023-001-R1-atrimmed.fastq-atrimmed-refstats.tsv, scafstats=03-split_by_reference/inplanta-3KO-023-001-R1-atrimmed.fastq-atrimmed-scafstats.tsv]

Merged reference file 03-split_by_reference/index/ref/genome/1/merged_ref_7744785918.fa.gz already exists; skipping merge.
Ref merge time:     	0.080 seconds.
Executing align2.BBMap [ow=t, fastareadlen=500, minhits=1, minratio=0.56, maxindel=20, qtrim=rl, untrim=t, trimq=6, k=13, untrim=t, ambiguous=all, build=1, outu=03-split_by_reference/inplanta-3KO-023-001-R1-atrimmed.fastq-R#-atrimmed-unmapped-pre.fastq.gz, in=02-chunkify_fastqs/inplanta-3KO-023-001-R1-atrimmed.fastq, in2=02-chunkify_fastqs/inplanta-3KO-023-001-R2-atrimmed.fastq, ambiguous2=best, maxindel=20000, refstats=03-split_by_reference/inplanta-3KO-023-001-R1-atrimmed.fastq-atrimmed-refstats.tsv, scafstats=03-split_by_reference/inplanta-3KO-023-001-R1-atrimmed.fastq-atrimmed-scafstats.tsv, ref=03-split_by_reference/index/ref/genome/1/merged_ref_7744785918.fa.gz, out_ta=03-split_by_reference/inplanta-3KO-023-001-R1-atrimmed.fastq-R#-atrimmed-ta-pre.fastq.gz, out_pn=03-split_by_reference/inplanta-3KO-023-001-R1-atrimmed.fastq-R#-atrimmed-pn-pre.fastq.gz]

BBMap version 36.67
Set MINIMUM_ALIGNMENT_SCORE_RATIO to 0.560
Reference set statistics will be written to 03-split_by_reference/inplanta-3KO-023-001-R1-atrimmed.fastq-atrimmed-refstats.tsv
Scaffold statistics will be written to 03-split_by_reference/inplanta-3KO-023-001-R1-atrimmed.fastq-atrimmed-scafstats.tsv
Retaining all best sites for ambiguous mappings.
NOTE:	Ignoring reference file because it already appears to have been processed.
NOTE:	If you wish to regenerate the index, please manually delete 03-split_by_reference/index/ref/genome/1/summary.txt
Set genome to 1

Loaded Reference:	11.411 seconds.
Loading index for chunk 1-26, build 1
Generated Index:	35.862 seconds.
Analyzed Index:   	28.821 seconds.
Reads that map to multiple references will be written to the first reference's stream only.
Started output stream:	0.346 seconds.
Creating ref-set statistics table:    	0.121 seconds.
Creating scaffold statistics table:   	11.678 seconds.
Cleared Memory:    	8.779 seconds.
Processing reads in paired-ended mode.
Started read stream.
Started 16 mapping threads.
slurmstepd: error: *** JOB 2035307 ON z002 CANCELLED AT 2017-02-13T14:26:25 DUE TO TIME LIMIT ***
