java -Djava.library.path=/home/darcyabjones/local/bbmap/36.67-bin/jni/ -ea -Xmx220002m -cp /home/darcyabjones/local/bbmap/36.67-bin/current/ align2.BBSplitter ow=t fastareadlen=500 minhits=1 minratio=0.56 maxindel=20 qtrim=rl untrim=t trimq=6 k=13 untrim=t ambiguous=all path=03-split_by_reference/index build=1 basename=03-split_by_reference/inplanta-Tween-013-007-R1-atrimmed.fastq-R#-atrimmed-%-pre.fastq.gz outu=03-split_by_reference/inplanta-Tween-013-007-R1-atrimmed.fastq-R#-atrimmed-unmapped-pre.fastq.gz in=02-chunkify_fastqs/inplanta-Tween-013-007-R1-atrimmed.fastq in2=02-chunkify_fastqs/inplanta-Tween-013-007-R2-atrimmed.fastq ambiguous2=best maxindel=20000 refstats=03-split_by_reference/inplanta-Tween-013-007-R1-atrimmed.fastq-atrimmed-refstats.tsv scafstats=03-split_by_reference/inplanta-Tween-013-007-R1-atrimmed.fastq-atrimmed-scafstats.tsv
Executing align2.BBSplitter [ow=t, fastareadlen=500, minhits=1, minratio=0.56, maxindel=20, qtrim=rl, untrim=t, trimq=6, k=13, untrim=t, ambiguous=all, path=03-split_by_reference/index, build=1, basename=03-split_by_reference/inplanta-Tween-013-007-R1-atrimmed.fastq-R#-atrimmed-%-pre.fastq.gz, outu=03-split_by_reference/inplanta-Tween-013-007-R1-atrimmed.fastq-R#-atrimmed-unmapped-pre.fastq.gz, in=02-chunkify_fastqs/inplanta-Tween-013-007-R1-atrimmed.fastq, in2=02-chunkify_fastqs/inplanta-Tween-013-007-R2-atrimmed.fastq, ambiguous2=best, maxindel=20000, refstats=03-split_by_reference/inplanta-Tween-013-007-R1-atrimmed.fastq-atrimmed-refstats.tsv, scafstats=03-split_by_reference/inplanta-Tween-013-007-R1-atrimmed.fastq-atrimmed-scafstats.tsv]

Merged reference file 03-split_by_reference/index/ref/genome/1/merged_ref_7744785918.fa.gz already exists; skipping merge.
Ref merge time:     	0.051 seconds.
Executing align2.BBMap [ow=t, fastareadlen=500, minhits=1, minratio=0.56, maxindel=20, qtrim=rl, untrim=t, trimq=6, k=13, untrim=t, ambiguous=all, build=1, outu=03-split_by_reference/inplanta-Tween-013-007-R1-atrimmed.fastq-R#-atrimmed-unmapped-pre.fastq.gz, in=02-chunkify_fastqs/inplanta-Tween-013-007-R1-atrimmed.fastq, in2=02-chunkify_fastqs/inplanta-Tween-013-007-R2-atrimmed.fastq, ambiguous2=best, maxindel=20000, refstats=03-split_by_reference/inplanta-Tween-013-007-R1-atrimmed.fastq-atrimmed-refstats.tsv, scafstats=03-split_by_reference/inplanta-Tween-013-007-R1-atrimmed.fastq-atrimmed-scafstats.tsv, ref=03-split_by_reference/index/ref/genome/1/merged_ref_7744785918.fa.gz, out_ta=03-split_by_reference/inplanta-Tween-013-007-R1-atrimmed.fastq-R#-atrimmed-ta-pre.fastq.gz, out_pn=03-split_by_reference/inplanta-Tween-013-007-R1-atrimmed.fastq-R#-atrimmed-pn-pre.fastq.gz]

BBMap version 36.67
Set MINIMUM_ALIGNMENT_SCORE_RATIO to 0.560
Reference set statistics will be written to 03-split_by_reference/inplanta-Tween-013-007-R1-atrimmed.fastq-atrimmed-refstats.tsv
Scaffold statistics will be written to 03-split_by_reference/inplanta-Tween-013-007-R1-atrimmed.fastq-atrimmed-scafstats.tsv
Retaining all best sites for ambiguous mappings.
NOTE:	Ignoring reference file because it already appears to have been processed.
NOTE:	If you wish to regenerate the index, please manually delete 03-split_by_reference/index/ref/genome/1/summary.txt
Set genome to 1

Loaded Reference:	10.744 seconds.
Loading index for chunk 1-26, build 1
Generated Index:	25.988 seconds.
Analyzed Index:   	24.430 seconds.
Reads that map to multiple references will be written to the first reference's stream only.
Started output stream:	0.067 seconds.
Creating ref-set statistics table:    	1.215 seconds.
Creating scaffold statistics table:   	0.483 seconds.
Cleared Memory:    	10.761 seconds.
Processing reads in paired-ended mode.
Started read stream.
Started 20 mapping threads.
Detecting finished threads: 0, 1, 2, 3, 4, 5, 6, 7, 8, 9, 10, 11, 12, 13, 14, 15, 16, 17, 18, 19

   ------------------   Results   ------------------   

Genome:                	1
Key Length:            	13
Max Indel:             	20000
Minimum Score Ratio:  	0.56
Mapping Mode:         	normal
Reads Used:           	80000000	(9377090016 bases)

Mapping:          	11834.409 seconds.
Reads/sec:       	6759.95
kBases/sec:      	792.36


Pairing data:   	pct reads	num reads 	pct bases	   num bases

mated pairs:     	 90.2941% 	 36117647 	 93.2253% 	  8741820142
bad pairs:       	  3.7599% 	  1503960 	  3.9384% 	   369303184
insert size avg: 	  191.78


Read 1 data:      	pct reads	num reads 	pct bases	   num bases

mapped:          	 98.7794% 	 39511748 	 98.8515% 	  4779644738
unambiguous:     	 81.7964% 	 32718579 	 82.1264% 	  3970957475
ambiguous:       	 16.9829% 	  6793169 	 16.7251% 	   808687263
low-Q discards:  	  0.1176% 	    47038 	  0.0584% 	     2822280

perfect best site:	 47.7394% 	 19095764 	 47.7339% 	  2308015527
semiperfect site:	 48.0978% 	 19239104 	 48.1012% 	  2325776174
rescued:         	  3.2547% 	  1301892

Match Rate:      	      NA 	       NA 	 47.5889% 	  4745516948
Error Rate:      	 51.4691% 	 20336357 	 52.3986% 	  5225138774
Sub Rate:        	 29.8717% 	 11802818 	  0.2972% 	    29640019
Del Rate:        	 30.5525% 	 12071820 	 52.0689% 	  5192255975
Ins Rate:        	  2.0816% 	   822459 	  0.0325% 	     3242780
N Rate:          	  0.3371% 	   133179 	  0.0125% 	     1244991


Read 2 data:      	pct reads	num reads 	pct bases	   num bases

mapped:          	 94.2651% 	 37706040 	 96.5373% 	  4384641915
unambiguous:     	 77.5373% 	 31014927 	 79.7613% 	  3622689713
ambiguous:       	 16.7278% 	  6691113 	 16.7760% 	   761952202
low-Q discards:  	  4.3507% 	  1740285 	  2.2990% 	   104417084

perfect best site:	 41.7842% 	 16713669 	 43.4794% 	  1974798886
semiperfect site:	 42.0633% 	 16825325 	 43.7757% 	  1988252708
rescued:         	  5.1513% 	  2060532

Match Rate:      	      NA 	       NA 	 46.5973% 	  4344676812
Error Rate:      	 55.4181% 	 20895960 	 53.3872% 	  4977757346
Sub Rate:        	 34.9629% 	 13183140 	  0.3806% 	    35485679
Del Rate:        	 30.0691% 	 11337876 	 52.9741% 	  4939238582
Ins Rate:        	  2.0767% 	   783056 	  0.0325% 	     3033085
N Rate:          	  0.5351% 	   201756 	  0.0155% 	     1446339

Total time:     	11910.046 seconds.
java -Djava.library.path=/home/darcyabjones/local/bbmap/36.67-bin/jni/ -ea -Xmx220001m -cp /home/darcyabjones/local/bbmap/36.67-bin/current/ align2.BBSplitter ow=t fastareadlen=500 minhits=1 minratio=0.56 maxindel=20 qtrim=rl untrim=t trimq=6 k=13 untrim=t ambiguous=all path=03-split_by_reference/index build=1 basename=03-split_by_reference/inplanta-Tween-013-008-R1-atrimmed.fastq-R#-atrimmed-%-pre.fastq.gz outu=03-split_by_reference/inplanta-Tween-013-008-R1-atrimmed.fastq-R#-atrimmed-unmapped-pre.fastq.gz in=02-chunkify_fastqs/inplanta-Tween-013-008-R1-atrimmed.fastq in2=02-chunkify_fastqs/inplanta-Tween-013-008-R2-atrimmed.fastq ambiguous2=best maxindel=20000 refstats=03-split_by_reference/inplanta-Tween-013-008-R1-atrimmed.fastq-atrimmed-refstats.tsv scafstats=03-split_by_reference/inplanta-Tween-013-008-R1-atrimmed.fastq-atrimmed-scafstats.tsv
Executing align2.BBSplitter [ow=t, fastareadlen=500, minhits=1, minratio=0.56, maxindel=20, qtrim=rl, untrim=t, trimq=6, k=13, untrim=t, ambiguous=all, path=03-split_by_reference/index, build=1, basename=03-split_by_reference/inplanta-Tween-013-008-R1-atrimmed.fastq-R#-atrimmed-%-pre.fastq.gz, outu=03-split_by_reference/inplanta-Tween-013-008-R1-atrimmed.fastq-R#-atrimmed-unmapped-pre.fastq.gz, in=02-chunkify_fastqs/inplanta-Tween-013-008-R1-atrimmed.fastq, in2=02-chunkify_fastqs/inplanta-Tween-013-008-R2-atrimmed.fastq, ambiguous2=best, maxindel=20000, refstats=03-split_by_reference/inplanta-Tween-013-008-R1-atrimmed.fastq-atrimmed-refstats.tsv, scafstats=03-split_by_reference/inplanta-Tween-013-008-R1-atrimmed.fastq-atrimmed-scafstats.tsv]

Merged reference file 03-split_by_reference/index/ref/genome/1/merged_ref_7744785918.fa.gz already exists; skipping merge.
Ref merge time:     	0.035 seconds.
Executing align2.BBMap [ow=t, fastareadlen=500, minhits=1, minratio=0.56, maxindel=20, qtrim=rl, untrim=t, trimq=6, k=13, untrim=t, ambiguous=all, build=1, outu=03-split_by_reference/inplanta-Tween-013-008-R1-atrimmed.fastq-R#-atrimmed-unmapped-pre.fastq.gz, in=02-chunkify_fastqs/inplanta-Tween-013-008-R1-atrimmed.fastq, in2=02-chunkify_fastqs/inplanta-Tween-013-008-R2-atrimmed.fastq, ambiguous2=best, maxindel=20000, refstats=03-split_by_reference/inplanta-Tween-013-008-R1-atrimmed.fastq-atrimmed-refstats.tsv, scafstats=03-split_by_reference/inplanta-Tween-013-008-R1-atrimmed.fastq-atrimmed-scafstats.tsv, ref=03-split_by_reference/index/ref/genome/1/merged_ref_7744785918.fa.gz, out_ta=03-split_by_reference/inplanta-Tween-013-008-R1-atrimmed.fastq-R#-atrimmed-ta-pre.fastq.gz, out_pn=03-split_by_reference/inplanta-Tween-013-008-R1-atrimmed.fastq-R#-atrimmed-pn-pre.fastq.gz]

BBMap version 36.67
Set MINIMUM_ALIGNMENT_SCORE_RATIO to 0.560
Reference set statistics will be written to 03-split_by_reference/inplanta-Tween-013-008-R1-atrimmed.fastq-atrimmed-refstats.tsv
Scaffold statistics will be written to 03-split_by_reference/inplanta-Tween-013-008-R1-atrimmed.fastq-atrimmed-scafstats.tsv
Retaining all best sites for ambiguous mappings.
NOTE:	Ignoring reference file because it already appears to have been processed.
NOTE:	If you wish to regenerate the index, please manually delete 03-split_by_reference/index/ref/genome/1/summary.txt
Set genome to 1

Loaded Reference:	8.138 seconds.
Loading index for chunk 1-26, build 1
Generated Index:	25.248 seconds.
Analyzed Index:   	24.197 seconds.
Reads that map to multiple references will be written to the first reference's stream only.
Started output stream:	0.103 seconds.
Creating ref-set statistics table:    	0.112 seconds.
Creating scaffold statistics table:   	20.045 seconds.
Cleared Memory:    	0.970 seconds.
Processing reads in paired-ended mode.
Started read stream.
Started 20 mapping threads.
Detecting finished threads: 0, 1, 2, 3, 4, 5, 6, 7, 8, 9, 10, 11, 12, 13, 14, 15, 16, 17, 18, 19

   ------------------   Results   ------------------   

Genome:                	1
Key Length:            	13
Max Indel:             	20000
Minimum Score Ratio:  	0.56
Mapping Mode:         	normal
Reads Used:           	3052952	(355466204 bases)

Mapping:          	462.962 seconds.
Reads/sec:       	6594.39
kBases/sec:      	767.81


Pairing data:   	pct reads	num reads 	pct bases	   num bases

mated pairs:     	 91.5505% 	  1397496 	 95.1472% 	   338216180
bad pairs:       	  3.7540% 	    57304 	  3.9634% 	    14088508
insert size avg: 	  193.07


Read 1 data:      	pct reads	num reads 	pct bases	   num bases

mapped:          	 98.8618% 	  1509102 	 98.8875% 	   182372705
unambiguous:     	 81.8141% 	  1248873 	 82.1252% 	   151458989
ambiguous:       	 17.0477% 	   260229 	 16.7623% 	    30913716
low-Q discards:  	  0.0336% 	      513 	  0.0167% 	       30780

perfect best site:	 47.8731% 	   730772 	 47.8399% 	    88228387
semiperfect site:	 48.2293% 	   736208 	 48.2050% 	    88901866
rescued:         	  3.3200% 	    50679

Match Rate:      	      NA 	       NA 	 47.5838% 	   181066473
Error Rate:      	 51.3839% 	   775436 	 52.4041% 	   199408870
Sub Rate:        	 29.7040% 	   448263 	  0.2989% 	     1137231
Del Rate:        	 30.5358% 	   460817 	 52.0730% 	   198148899
Ins Rate:        	  2.0859% 	    31479 	  0.0323% 	      122740
N Rate:          	  0.3346% 	     5050 	  0.0122% 	       46261


Read 2 data:      	pct reads	num reads 	pct bases	   num bases

mapped:          	 95.4352% 	  1456795 	 97.1328% 	   166137583
unambiguous:     	 78.1287% 	  1192616 	 79.8820% 	   136631631
ambiguous:       	 17.3065% 	   264179 	 17.2507% 	    29505952
low-Q discards:  	  3.2094% 	    48991 	  1.7186% 	     2939460

perfect best site:	 40.8785% 	   624000 	 42.3073% 	    72363194
semiperfect site:	 41.1387% 	   627973 	 42.5810% 	    72831330
rescued:         	  5.8610% 	    89466

Match Rate:      	      NA 	       NA 	 46.4773% 	   164528866
Error Rate:      	 56.9147% 	   829131 	 53.5069% 	   189413246
Sub Rate:        	 37.2927% 	   543279 	  0.4049% 	     1433214
Del Rate:        	 29.5439% 	   430394 	 53.0682% 	   187860371
Ins Rate:        	  2.1067% 	    30691 	  0.0338% 	      119661
N Rate:          	  0.5779% 	     8419 	  0.0158% 	       55842

Total time:     	543.126 seconds.
java -Djava.library.path=/home/darcyabjones/local/bbmap/36.67-bin/jni/ -ea -Xmx220001m -cp /home/darcyabjones/local/bbmap/36.67-bin/current/ align2.BBSplitter ow=t fastareadlen=500 minhits=1 minratio=0.56 maxindel=20 qtrim=rl untrim=t trimq=6 k=13 untrim=t ambiguous=all path=03-split_by_reference/index build=1 basename=03-split_by_reference/inplanta-Tween-014-001-R1-atrimmed.fastq-R#-atrimmed-%-pre.fastq.gz outu=03-split_by_reference/inplanta-Tween-014-001-R1-atrimmed.fastq-R#-atrimmed-unmapped-pre.fastq.gz in=02-chunkify_fastqs/inplanta-Tween-014-001-R1-atrimmed.fastq in2=02-chunkify_fastqs/inplanta-Tween-014-001-R2-atrimmed.fastq ambiguous2=best maxindel=20000 refstats=03-split_by_reference/inplanta-Tween-014-001-R1-atrimmed.fastq-atrimmed-refstats.tsv scafstats=03-split_by_reference/inplanta-Tween-014-001-R1-atrimmed.fastq-atrimmed-scafstats.tsv
Executing align2.BBSplitter [ow=t, fastareadlen=500, minhits=1, minratio=0.56, maxindel=20, qtrim=rl, untrim=t, trimq=6, k=13, untrim=t, ambiguous=all, path=03-split_by_reference/index, build=1, basename=03-split_by_reference/inplanta-Tween-014-001-R1-atrimmed.fastq-R#-atrimmed-%-pre.fastq.gz, outu=03-split_by_reference/inplanta-Tween-014-001-R1-atrimmed.fastq-R#-atrimmed-unmapped-pre.fastq.gz, in=02-chunkify_fastqs/inplanta-Tween-014-001-R1-atrimmed.fastq, in2=02-chunkify_fastqs/inplanta-Tween-014-001-R2-atrimmed.fastq, ambiguous2=best, maxindel=20000, refstats=03-split_by_reference/inplanta-Tween-014-001-R1-atrimmed.fastq-atrimmed-refstats.tsv, scafstats=03-split_by_reference/inplanta-Tween-014-001-R1-atrimmed.fastq-atrimmed-scafstats.tsv]

Merged reference file 03-split_by_reference/index/ref/genome/1/merged_ref_7744785918.fa.gz already exists; skipping merge.
Ref merge time:     	0.026 seconds.
Executing align2.BBMap [ow=t, fastareadlen=500, minhits=1, minratio=0.56, maxindel=20, qtrim=rl, untrim=t, trimq=6, k=13, untrim=t, ambiguous=all, build=1, outu=03-split_by_reference/inplanta-Tween-014-001-R1-atrimmed.fastq-R#-atrimmed-unmapped-pre.fastq.gz, in=02-chunkify_fastqs/inplanta-Tween-014-001-R1-atrimmed.fastq, in2=02-chunkify_fastqs/inplanta-Tween-014-001-R2-atrimmed.fastq, ambiguous2=best, maxindel=20000, refstats=03-split_by_reference/inplanta-Tween-014-001-R1-atrimmed.fastq-atrimmed-refstats.tsv, scafstats=03-split_by_reference/inplanta-Tween-014-001-R1-atrimmed.fastq-atrimmed-scafstats.tsv, ref=03-split_by_reference/index/ref/genome/1/merged_ref_7744785918.fa.gz, out_ta=03-split_by_reference/inplanta-Tween-014-001-R1-atrimmed.fastq-R#-atrimmed-ta-pre.fastq.gz, out_pn=03-split_by_reference/inplanta-Tween-014-001-R1-atrimmed.fastq-R#-atrimmed-pn-pre.fastq.gz]

BBMap version 36.67
Set MINIMUM_ALIGNMENT_SCORE_RATIO to 0.560
Reference set statistics will be written to 03-split_by_reference/inplanta-Tween-014-001-R1-atrimmed.fastq-atrimmed-refstats.tsv
Scaffold statistics will be written to 03-split_by_reference/inplanta-Tween-014-001-R1-atrimmed.fastq-atrimmed-scafstats.tsv
Retaining all best sites for ambiguous mappings.
NOTE:	Ignoring reference file because it already appears to have been processed.
NOTE:	If you wish to regenerate the index, please manually delete 03-split_by_reference/index/ref/genome/1/summary.txt
Set genome to 1

Loaded Reference:	9.097 seconds.
Loading index for chunk 1-26, build 1
Generated Index:	26.370 seconds.
Analyzed Index:   	25.090 seconds.
Reads that map to multiple references will be written to the first reference's stream only.
Started output stream:	0.122 seconds.
Creating ref-set statistics table:    	10.985 seconds.
Creating scaffold statistics table:   	9.084 seconds.
Cleared Memory:    	0.922 seconds.
Processing reads in paired-ended mode.
Started read stream.
Started 20 mapping threads.
Detecting finished threads: 0, 1, 2, 3, 4, 5, 6, 7, 8, 9, 10, 11, 12, 13, 14, 15, 16, 17, 18, 19

   ------------------   Results   ------------------   

Genome:                	1
Key Length:            	13
Max Indel:             	20000
Minimum Score Ratio:  	0.56
Mapping Mode:         	normal
Reads Used:           	80000000	(9499620504 bases)

Mapping:          	10862.431 seconds.
Reads/sec:       	7364.83
kBases/sec:      	874.54


Pairing data:   	pct reads	num reads 	pct bases	   num bases

mated pairs:     	 92.1401% 	 36856046 	 93.9939% 	  8929067582
bad pairs:       	  3.6615% 	  1464584 	  3.7936% 	   360373576
insert size avg: 	  189.28


Read 1 data:      	pct reads	num reads 	pct bases	   num bases

mapped:          	 98.8401% 	 39536030 	 98.8722% 	  4790324203
unambiguous:     	 84.0363% 	 33614532 	 84.2657% 	  4082641209
ambiguous:       	 14.8037% 	  5921498 	 14.6066% 	   707682994
low-Q discards:  	  0.0680% 	    27204 	  0.0337% 	     1632240

perfect best site:	 50.5513% 	 20220503 	 50.5196% 	  2447657830
semiperfect site:	 50.8764% 	 20350556 	 50.8522% 	  2463770904
rescued:         	  2.9283% 	  1171328

Match Rate:      	      NA 	       NA 	 53.0707% 	  4758061299
Error Rate:      	 48.7494% 	 19273575 	 46.9213% 	  4206741200
Sub Rate:        	 29.6549% 	 11724379 	  0.3155% 	    28286765
Del Rate:        	 26.9612% 	 10659377 	 46.5695% 	  4175193051
Ins Rate:        	  1.9589% 	   774460 	  0.0364% 	     3261384
N Rate:          	  0.1844% 	    72920 	  0.0080% 	      714755


Read 2 data:      	pct reads	num reads 	pct bases	   num bases

mapped:          	 95.9918% 	 38396728 	 97.4692% 	  4536857755
unambiguous:     	 81.2817% 	 32512673 	 82.7796% 	  3853105521
ambiguous:       	 14.7101% 	  5884055 	 14.6896% 	   683752234
low-Q discards:  	  2.7192% 	  1087689 	  1.4021% 	    65261324

perfect best site:	 46.2979% 	 18519175 	 47.5210% 	  2211939710
semiperfect site:	 46.6132% 	 18645272 	 47.8515% 	  2227324307
rescued:         	  4.1873% 	  1674934

Match Rate:      	      NA 	       NA 	 51.9563% 	  4500677432
Error Rate:      	 51.1652% 	 19645774 	 48.0281% 	  4160401232
Sub Rate:        	 32.0180% 	 12293852 	  0.3677% 	    31853217
Del Rate:        	 27.2237% 	 10453016 	 47.6261% 	  4125577745
Ins Rate:        	  1.9061% 	   731883 	  0.0343% 	     2970270
N Rate:          	  1.2637% 	   485231 	  0.0157% 	     1356836

Total time:     	10945.633 seconds.
java -Djava.library.path=/home/darcyabjones/local/bbmap/36.67-bin/jni/ -ea -Xmx220001m -cp /home/darcyabjones/local/bbmap/36.67-bin/current/ align2.BBSplitter ow=t fastareadlen=500 minhits=1 minratio=0.56 maxindel=20 qtrim=rl untrim=t trimq=6 k=13 untrim=t ambiguous=all path=03-split_by_reference/index build=1 basename=03-split_by_reference/inplanta-Tween-014-002-R1-atrimmed.fastq-R#-atrimmed-%-pre.fastq.gz outu=03-split_by_reference/inplanta-Tween-014-002-R1-atrimmed.fastq-R#-atrimmed-unmapped-pre.fastq.gz in=02-chunkify_fastqs/inplanta-Tween-014-002-R1-atrimmed.fastq in2=02-chunkify_fastqs/inplanta-Tween-014-002-R2-atrimmed.fastq ambiguous2=best maxindel=20000 refstats=03-split_by_reference/inplanta-Tween-014-002-R1-atrimmed.fastq-atrimmed-refstats.tsv scafstats=03-split_by_reference/inplanta-Tween-014-002-R1-atrimmed.fastq-atrimmed-scafstats.tsv
Executing align2.BBSplitter [ow=t, fastareadlen=500, minhits=1, minratio=0.56, maxindel=20, qtrim=rl, untrim=t, trimq=6, k=13, untrim=t, ambiguous=all, path=03-split_by_reference/index, build=1, basename=03-split_by_reference/inplanta-Tween-014-002-R1-atrimmed.fastq-R#-atrimmed-%-pre.fastq.gz, outu=03-split_by_reference/inplanta-Tween-014-002-R1-atrimmed.fastq-R#-atrimmed-unmapped-pre.fastq.gz, in=02-chunkify_fastqs/inplanta-Tween-014-002-R1-atrimmed.fastq, in2=02-chunkify_fastqs/inplanta-Tween-014-002-R2-atrimmed.fastq, ambiguous2=best, maxindel=20000, refstats=03-split_by_reference/inplanta-Tween-014-002-R1-atrimmed.fastq-atrimmed-refstats.tsv, scafstats=03-split_by_reference/inplanta-Tween-014-002-R1-atrimmed.fastq-atrimmed-scafstats.tsv]

Merged reference file 03-split_by_reference/index/ref/genome/1/merged_ref_7744785918.fa.gz already exists; skipping merge.
Ref merge time:     	0.046 seconds.
Executing align2.BBMap [ow=t, fastareadlen=500, minhits=1, minratio=0.56, maxindel=20, qtrim=rl, untrim=t, trimq=6, k=13, untrim=t, ambiguous=all, build=1, outu=03-split_by_reference/inplanta-Tween-014-002-R1-atrimmed.fastq-R#-atrimmed-unmapped-pre.fastq.gz, in=02-chunkify_fastqs/inplanta-Tween-014-002-R1-atrimmed.fastq, in2=02-chunkify_fastqs/inplanta-Tween-014-002-R2-atrimmed.fastq, ambiguous2=best, maxindel=20000, refstats=03-split_by_reference/inplanta-Tween-014-002-R1-atrimmed.fastq-atrimmed-refstats.tsv, scafstats=03-split_by_reference/inplanta-Tween-014-002-R1-atrimmed.fastq-atrimmed-scafstats.tsv, ref=03-split_by_reference/index/ref/genome/1/merged_ref_7744785918.fa.gz, out_ta=03-split_by_reference/inplanta-Tween-014-002-R1-atrimmed.fastq-R#-atrimmed-ta-pre.fastq.gz, out_pn=03-split_by_reference/inplanta-Tween-014-002-R1-atrimmed.fastq-R#-atrimmed-pn-pre.fastq.gz]

BBMap version 36.67
Set MINIMUM_ALIGNMENT_SCORE_RATIO to 0.560
Reference set statistics will be written to 03-split_by_reference/inplanta-Tween-014-002-R1-atrimmed.fastq-atrimmed-refstats.tsv
Scaffold statistics will be written to 03-split_by_reference/inplanta-Tween-014-002-R1-atrimmed.fastq-atrimmed-scafstats.tsv
Retaining all best sites for ambiguous mappings.
NOTE:	Ignoring reference file because it already appears to have been processed.
NOTE:	If you wish to regenerate the index, please manually delete 03-split_by_reference/index/ref/genome/1/summary.txt
Set genome to 1

Loaded Reference:	10.598 seconds.
Loading index for chunk 1-26, build 1
Generated Index:	37.251 seconds.
Analyzed Index:   	26.344 seconds.
Reads that map to multiple references will be written to the first reference's stream only.
Started output stream:	0.162 seconds.
Creating ref-set statistics table:    	0.121 seconds.
Creating scaffold statistics table:   	0.544 seconds.
Cleared Memory:    	9.651 seconds.
Processing reads in paired-ended mode.
Started read stream.
Started 20 mapping threads.
Detecting finished threads: 0, 1, 2, 3, 4, 5, 6, 7, 8, 9, 10, 11, 12, 13, 14, 15, 16, 17, 18, 19

   ------------------   Results   ------------------   

Genome:                	1
Key Length:            	13
Max Indel:             	20000
Minimum Score Ratio:  	0.56
Mapping Mode:         	normal
Reads Used:           	80000000	(9485549519 bases)

Mapping:          	10925.197 seconds.
Reads/sec:       	7322.52
kBases/sec:      	868.23


Pairing data:   	pct reads	num reads 	pct bases	   num bases

mated pairs:     	 92.0814% 	 36832575 	 94.0502% 	  8921181166
bad pairs:       	  3.6492% 	  1459690 	  3.7848% 	   359012608
insert size avg: 	  188.49


Read 1 data:      	pct reads	num reads 	pct bases	   num bases

mapped:          	 98.8535% 	 39541383 	 98.8879% 	  4789720729
unambiguous:     	 84.0299% 	 33611968 	 84.2608% 	  4081245659
ambiguous:       	 14.8235% 	  5929415 	 14.6271% 	   708475070
low-Q discards:  	  0.0711% 	    28444 	  0.0352% 	     1706640

perfect best site:	 50.5349% 	 20213974 	 50.4999% 	  2446009178
semiperfect site:	 50.8565% 	 20342611 	 50.8290% 	  2461946569
rescued:         	  2.9139% 	  1165576

Match Rate:      	      NA 	       NA 	 52.9653% 	  4757505217
Error Rate:      	 48.7667% 	 19283040 	 47.0269% 	  4224099032
Sub Rate:        	 29.6605% 	 11728156 	  0.3145% 	    28245386
Del Rate:        	 26.9862% 	 10670707 	 46.6761% 	  4192591076
Ins Rate:        	  1.9637% 	   776473 	  0.0363% 	     3262570
N Rate:          	  0.2008% 	    79411 	  0.0079% 	      707556


Read 2 data:      	pct reads	num reads 	pct bases	   num bases

mapped:          	 95.9221% 	 38368823 	 97.4406% 	  4523154724
unambiguous:     	 81.1852% 	 32474090 	 82.7196% 	  3839811649
ambiguous:       	 14.7368% 	  5894733 	 14.7210% 	   683343075
low-Q discards:  	  2.8026% 	  1121046 	  1.4490% 	    67262750

perfect best site:	 46.0221% 	 18408820 	 47.2782% 	  2194636586
semiperfect site:	 46.3312% 	 18532466 	 47.6025% 	  2209691111
rescued:         	  4.1090% 	  1643616

Match Rate:      	      NA 	       NA 	 51.9394% 	  4486758012
Error Rate:      	 51.4930% 	 19757268 	 48.0458% 	  4150406952
Sub Rate:        	 32.4581% 	 12453776 	  0.3722% 	    32150155
Del Rate:        	 27.1901% 	 10432531 	 47.6393% 	  4115292591
Ins Rate:        	  1.9050% 	   730932 	  0.0343% 	     2964206
N Rate:          	  1.1473% 	   440188 	  0.0148% 	     1282351

Total time:     	11013.829 seconds.
java -Djava.library.path=/home/darcyabjones/local/bbmap/36.67-bin/jni/ -ea -Xmx220001m -cp /home/darcyabjones/local/bbmap/36.67-bin/current/ align2.BBSplitter ow=t fastareadlen=500 minhits=1 minratio=0.56 maxindel=20 qtrim=rl untrim=t trimq=6 k=13 untrim=t ambiguous=all path=03-split_by_reference/index build=1 basename=03-split_by_reference/inplanta-Tween-014-003-R1-atrimmed.fastq-R#-atrimmed-%-pre.fastq.gz outu=03-split_by_reference/inplanta-Tween-014-003-R1-atrimmed.fastq-R#-atrimmed-unmapped-pre.fastq.gz in=02-chunkify_fastqs/inplanta-Tween-014-003-R1-atrimmed.fastq in2=02-chunkify_fastqs/inplanta-Tween-014-003-R2-atrimmed.fastq ambiguous2=best maxindel=20000 refstats=03-split_by_reference/inplanta-Tween-014-003-R1-atrimmed.fastq-atrimmed-refstats.tsv scafstats=03-split_by_reference/inplanta-Tween-014-003-R1-atrimmed.fastq-atrimmed-scafstats.tsv
Executing align2.BBSplitter [ow=t, fastareadlen=500, minhits=1, minratio=0.56, maxindel=20, qtrim=rl, untrim=t, trimq=6, k=13, untrim=t, ambiguous=all, path=03-split_by_reference/index, build=1, basename=03-split_by_reference/inplanta-Tween-014-003-R1-atrimmed.fastq-R#-atrimmed-%-pre.fastq.gz, outu=03-split_by_reference/inplanta-Tween-014-003-R1-atrimmed.fastq-R#-atrimmed-unmapped-pre.fastq.gz, in=02-chunkify_fastqs/inplanta-Tween-014-003-R1-atrimmed.fastq, in2=02-chunkify_fastqs/inplanta-Tween-014-003-R2-atrimmed.fastq, ambiguous2=best, maxindel=20000, refstats=03-split_by_reference/inplanta-Tween-014-003-R1-atrimmed.fastq-atrimmed-refstats.tsv, scafstats=03-split_by_reference/inplanta-Tween-014-003-R1-atrimmed.fastq-atrimmed-scafstats.tsv]

Merged reference file 03-split_by_reference/index/ref/genome/1/merged_ref_7744785918.fa.gz already exists; skipping merge.
Ref merge time:     	0.052 seconds.
Executing align2.BBMap [ow=t, fastareadlen=500, minhits=1, minratio=0.56, maxindel=20, qtrim=rl, untrim=t, trimq=6, k=13, untrim=t, ambiguous=all, build=1, outu=03-split_by_reference/inplanta-Tween-014-003-R1-atrimmed.fastq-R#-atrimmed-unmapped-pre.fastq.gz, in=02-chunkify_fastqs/inplanta-Tween-014-003-R1-atrimmed.fastq, in2=02-chunkify_fastqs/inplanta-Tween-014-003-R2-atrimmed.fastq, ambiguous2=best, maxindel=20000, refstats=03-split_by_reference/inplanta-Tween-014-003-R1-atrimmed.fastq-atrimmed-refstats.tsv, scafstats=03-split_by_reference/inplanta-Tween-014-003-R1-atrimmed.fastq-atrimmed-scafstats.tsv, ref=03-split_by_reference/index/ref/genome/1/merged_ref_7744785918.fa.gz, out_ta=03-split_by_reference/inplanta-Tween-014-003-R1-atrimmed.fastq-R#-atrimmed-ta-pre.fastq.gz, out_pn=03-split_by_reference/inplanta-Tween-014-003-R1-atrimmed.fastq-R#-atrimmed-pn-pre.fastq.gz]

BBMap version 36.67
Set MINIMUM_ALIGNMENT_SCORE_RATIO to 0.560
Reference set statistics will be written to 03-split_by_reference/inplanta-Tween-014-003-R1-atrimmed.fastq-atrimmed-refstats.tsv
Scaffold statistics will be written to 03-split_by_reference/inplanta-Tween-014-003-R1-atrimmed.fastq-atrimmed-scafstats.tsv
Retaining all best sites for ambiguous mappings.
NOTE:	Ignoring reference file because it already appears to have been processed.
NOTE:	If you wish to regenerate the index, please manually delete 03-split_by_reference/index/ref/genome/1/summary.txt
Set genome to 1

Loaded Reference:	10.325 seconds.
Loading index for chunk 1-26, build 1
Generated Index:	38.006 seconds.
Analyzed Index:   	24.541 seconds.
Reads that map to multiple references will be written to the first reference's stream only.
Started output stream:	0.214 seconds.
Creating ref-set statistics table:    	0.105 seconds.
Creating scaffold statistics table:   	0.515 seconds.
Cleared Memory:    	9.870 seconds.
Processing reads in paired-ended mode.
Started read stream.
Started 20 mapping threads.
Detecting finished threads: 0, 1, 2, 3, 4, 5, 6, 7, 8, 9, 10, 11, 12, 13, 14, 15, 16, 17, 18, 19

   ------------------   Results   ------------------   

Genome:                	1
Key Length:            	13
Max Indel:             	20000
Minimum Score Ratio:  	0.56
Mapping Mode:         	normal
Reads Used:           	80000000	(9487658627 bases)

Mapping:          	10864.458 seconds.
Reads/sec:       	7363.46
kBases/sec:      	873.27


Pairing data:   	pct reads	num reads 	pct bases	   num bases

mated pairs:     	 91.9858% 	 36794317 	 93.9847% 	  8916951530
bad pairs:       	  3.6639% 	  1465566 	  3.7999% 	   360524924
insert size avg: 	  188.55


Read 1 data:      	pct reads	num reads 	pct bases	   num bases

mapped:          	 98.8450% 	 39537995 	 98.8797% 	  4792253911
unambiguous:     	 84.0663% 	 33626506 	 84.2924% 	  4085271353
ambiguous:       	 14.7787% 	  5911489 	 14.5873% 	   706982558
low-Q discards:  	  0.0731% 	    29252 	  0.0362% 	     1755120

perfect best site:	 50.5208% 	 20208320 	 50.4805% 	  2446564769
semiperfect site:	 50.8453% 	 20338105 	 50.8124% 	  2462647126
rescued:         	  2.9019% 	  1160748

Match Rate:      	      NA 	       NA 	 52.9254% 	  4760146783
Error Rate:      	 48.6981% 	 19254271 	 47.0654% 	  4233094779
Sub Rate:        	 29.5309% 	 11675911 	  0.3119% 	    28049159
Del Rate:        	 27.0341% 	 10688743 	 46.7176% 	  4201810040
Ins Rate:        	  1.9529% 	   772148 	  0.0360% 	     3235580
N Rate:          	  0.3577% 	   141414 	  0.0091% 	      822389


Read 2 data:      	pct reads	num reads 	pct bases	   num bases

mapped:          	 95.8439% 	 38337563 	 97.4037% 	  4520611943
unambiguous:     	 81.1525% 	 32460982 	 82.7202% 	  3839135045
ambiguous:       	 14.6915% 	  5876581 	 14.6835% 	   681476898
low-Q discards:  	  2.8655% 	  1146181 	  1.4818% 	    68770850

perfect best site:	 45.8823% 	 18352914 	 47.1593% 	  2188714251
semiperfect site:	 46.1936% 	 18477433 	 47.4860% 	  2203877432
rescued:         	  3.9372% 	  1574880

Match Rate:      	      NA 	       NA 	 51.9154% 	  4484030040
Error Rate:      	 51.5626% 	 19767836 	 48.0668% 	  4151618376
Sub Rate:        	 32.5511% 	 12479307 	  0.3717% 	    32107606
Del Rate:        	 27.2174% 	 10434471 	 47.6610% 	  4116570236
Ins Rate:        	  1.8943% 	   726235 	  0.0340% 	     2940534
N Rate:          	  1.2256% 	   469883 	  0.0178% 	     1533763

Total time:     	10949.594 seconds.
java -Djava.library.path=/home/darcyabjones/local/bbmap/36.67-bin/jni/ -ea -Xmx220001m -cp /home/darcyabjones/local/bbmap/36.67-bin/current/ align2.BBSplitter ow=t fastareadlen=500 minhits=1 minratio=0.56 maxindel=20 qtrim=rl untrim=t trimq=6 k=13 untrim=t ambiguous=all path=03-split_by_reference/index build=1 basename=03-split_by_reference/inplanta-Tween-014-004-R1-atrimmed.fastq-R#-atrimmed-%-pre.fastq.gz outu=03-split_by_reference/inplanta-Tween-014-004-R1-atrimmed.fastq-R#-atrimmed-unmapped-pre.fastq.gz in=02-chunkify_fastqs/inplanta-Tween-014-004-R1-atrimmed.fastq in2=02-chunkify_fastqs/inplanta-Tween-014-004-R2-atrimmed.fastq ambiguous2=best maxindel=20000 refstats=03-split_by_reference/inplanta-Tween-014-004-R1-atrimmed.fastq-atrimmed-refstats.tsv scafstats=03-split_by_reference/inplanta-Tween-014-004-R1-atrimmed.fastq-atrimmed-scafstats.tsv
Executing align2.BBSplitter [ow=t, fastareadlen=500, minhits=1, minratio=0.56, maxindel=20, qtrim=rl, untrim=t, trimq=6, k=13, untrim=t, ambiguous=all, path=03-split_by_reference/index, build=1, basename=03-split_by_reference/inplanta-Tween-014-004-R1-atrimmed.fastq-R#-atrimmed-%-pre.fastq.gz, outu=03-split_by_reference/inplanta-Tween-014-004-R1-atrimmed.fastq-R#-atrimmed-unmapped-pre.fastq.gz, in=02-chunkify_fastqs/inplanta-Tween-014-004-R1-atrimmed.fastq, in2=02-chunkify_fastqs/inplanta-Tween-014-004-R2-atrimmed.fastq, ambiguous2=best, maxindel=20000, refstats=03-split_by_reference/inplanta-Tween-014-004-R1-atrimmed.fastq-atrimmed-refstats.tsv, scafstats=03-split_by_reference/inplanta-Tween-014-004-R1-atrimmed.fastq-atrimmed-scafstats.tsv]

Merged reference file 03-split_by_reference/index/ref/genome/1/merged_ref_7744785918.fa.gz already exists; skipping merge.
Ref merge time:     	0.025 seconds.
Executing align2.BBMap [ow=t, fastareadlen=500, minhits=1, minratio=0.56, maxindel=20, qtrim=rl, untrim=t, trimq=6, k=13, untrim=t, ambiguous=all, build=1, outu=03-split_by_reference/inplanta-Tween-014-004-R1-atrimmed.fastq-R#-atrimmed-unmapped-pre.fastq.gz, in=02-chunkify_fastqs/inplanta-Tween-014-004-R1-atrimmed.fastq, in2=02-chunkify_fastqs/inplanta-Tween-014-004-R2-atrimmed.fastq, ambiguous2=best, maxindel=20000, refstats=03-split_by_reference/inplanta-Tween-014-004-R1-atrimmed.fastq-atrimmed-refstats.tsv, scafstats=03-split_by_reference/inplanta-Tween-014-004-R1-atrimmed.fastq-atrimmed-scafstats.tsv, ref=03-split_by_reference/index/ref/genome/1/merged_ref_7744785918.fa.gz, out_ta=03-split_by_reference/inplanta-Tween-014-004-R1-atrimmed.fastq-R#-atrimmed-ta-pre.fastq.gz, out_pn=03-split_by_reference/inplanta-Tween-014-004-R1-atrimmed.fastq-R#-atrimmed-pn-pre.fastq.gz]

BBMap version 36.67
Set MINIMUM_ALIGNMENT_SCORE_RATIO to 0.560
Reference set statistics will be written to 03-split_by_reference/inplanta-Tween-014-004-R1-atrimmed.fastq-atrimmed-refstats.tsv
Scaffold statistics will be written to 03-split_by_reference/inplanta-Tween-014-004-R1-atrimmed.fastq-atrimmed-scafstats.tsv
Retaining all best sites for ambiguous mappings.
NOTE:	Ignoring reference file because it already appears to have been processed.
NOTE:	If you wish to regenerate the index, please manually delete 03-split_by_reference/index/ref/genome/1/summary.txt
Set genome to 1

Loaded Reference:	9.783 seconds.
Loading index for chunk 1-26, build 1
Generated Index:	27.133 seconds.
Analyzed Index:   	24.497 seconds.
Reads that map to multiple references will be written to the first reference's stream only.
Started output stream:	0.146 seconds.
Creating ref-set statistics table:    	11.869 seconds.
Creating scaffold statistics table:   	0.757 seconds.
Cleared Memory:    	9.889 seconds.
Processing reads in paired-ended mode.
Started read stream.
Started 20 mapping threads.
Detecting finished threads: 0, 1, 2, 3, 4, 5, 6, 7, 8, 9, 10, 11, 12, 13, 14, 15, 16, 17, 18, 19

   ------------------   Results   ------------------   

Genome:                	1
Key Length:            	13
Max Indel:             	20000
Minimum Score Ratio:  	0.56
Mapping Mode:         	normal
Reads Used:           	80000000	(9427481576 bases)

Mapping:          	10508.343 seconds.
Reads/sec:       	7613.00
kBases/sec:      	897.14


Pairing data:   	pct reads	num reads 	pct bases	   num bases

mated pairs:     	 91.1399% 	 36455966 	 93.6702% 	  8830740850
bad pairs:       	  3.6432% 	  1457286 	  3.7973% 	   357991202
insert size avg: 	  187.92


Read 1 data:      	pct reads	num reads 	pct bases	   num bases

mapped:          	 98.8276% 	 39531047 	 98.8729% 	  4787742763
unambiguous:     	 83.9509% 	 33580375 	 84.1942% 	  4076954035
ambiguous:       	 14.8767% 	  5950672 	 14.6787% 	   710788728
low-Q discards:  	  0.0782% 	    31260 	  0.0387% 	     1875600

perfect best site:	 48.8211% 	 19528433 	 48.7945% 	  2362786559
semiperfect site:	 49.1307% 	 19652280 	 49.1113% 	  2378124302
rescued:         	  2.9258% 	  1170304

Match Rate:      	      NA 	       NA 	 52.8999% 	  4754104939
Error Rate:      	 50.4038% 	 19925160 	 47.0896% 	  4231927859
Sub Rate:        	 31.9448% 	 12628127 	  0.3277% 	    29447923
Del Rate:        	 26.9681% 	 10660773 	 46.7258% 	  4199233819
Ins Rate:        	  1.9483% 	   770176 	  0.0361% 	     3246117
N Rate:          	  0.3526% 	   139395 	  0.0105% 	      943784


Read 2 data:      	pct reads	num reads 	pct bases	   num bases

mapped:          	 94.9738% 	 37989506 	 96.9463% 	  4445142402
unambiguous:     	 80.2745% 	 32109809 	 82.1990% 	  3768958240
ambiguous:       	 14.6992% 	  5879697 	 14.7472% 	   676184162
low-Q discards:  	  3.7185% 	  1487410 	  1.9464% 	    89244572

perfect best site:	 44.4819% 	 17792748 	 46.0531% 	  2111609613
semiperfect site:	 44.7728% 	 17909118 	 46.3603% 	  2125696487
rescued:         	  3.9083% 	  1563318

Match Rate:      	      NA 	       NA 	 51.9974% 	  4407616480
Error Rate:      	 52.8056% 	 20060588 	 47.9877% 	  4067726001
Sub Rate:        	 34.4424% 	 13084491 	  0.3936% 	    33360361
Del Rate:        	 26.9248% 	 10228592 	 47.5599% 	  4031463020
Ins Rate:        	  1.8868% 	   716778 	  0.0342% 	     2902620
N Rate:          	  0.7971% 	   302798 	  0.0149% 	     1262941

Total time:     	10594.250 seconds.
java -Djava.library.path=/home/darcyabjones/local/bbmap/36.67-bin/jni/ -ea -Xmx220001m -cp /home/darcyabjones/local/bbmap/36.67-bin/current/ align2.BBSplitter ow=t fastareadlen=500 minhits=1 minratio=0.56 maxindel=20 qtrim=rl untrim=t trimq=6 k=13 untrim=t ambiguous=all path=03-split_by_reference/index build=1 basename=03-split_by_reference/inplanta-Tween-014-005-R1-atrimmed.fastq-R#-atrimmed-%-pre.fastq.gz outu=03-split_by_reference/inplanta-Tween-014-005-R1-atrimmed.fastq-R#-atrimmed-unmapped-pre.fastq.gz in=02-chunkify_fastqs/inplanta-Tween-014-005-R1-atrimmed.fastq in2=02-chunkify_fastqs/inplanta-Tween-014-005-R2-atrimmed.fastq ambiguous2=best maxindel=20000 refstats=03-split_by_reference/inplanta-Tween-014-005-R1-atrimmed.fastq-atrimmed-refstats.tsv scafstats=03-split_by_reference/inplanta-Tween-014-005-R1-atrimmed.fastq-atrimmed-scafstats.tsv
Executing align2.BBSplitter [ow=t, fastareadlen=500, minhits=1, minratio=0.56, maxindel=20, qtrim=rl, untrim=t, trimq=6, k=13, untrim=t, ambiguous=all, path=03-split_by_reference/index, build=1, basename=03-split_by_reference/inplanta-Tween-014-005-R1-atrimmed.fastq-R#-atrimmed-%-pre.fastq.gz, outu=03-split_by_reference/inplanta-Tween-014-005-R1-atrimmed.fastq-R#-atrimmed-unmapped-pre.fastq.gz, in=02-chunkify_fastqs/inplanta-Tween-014-005-R1-atrimmed.fastq, in2=02-chunkify_fastqs/inplanta-Tween-014-005-R2-atrimmed.fastq, ambiguous2=best, maxindel=20000, refstats=03-split_by_reference/inplanta-Tween-014-005-R1-atrimmed.fastq-atrimmed-refstats.tsv, scafstats=03-split_by_reference/inplanta-Tween-014-005-R1-atrimmed.fastq-atrimmed-scafstats.tsv]

Merged reference file 03-split_by_reference/index/ref/genome/1/merged_ref_7744785918.fa.gz already exists; skipping merge.
Ref merge time:     	0.026 seconds.
Executing align2.BBMap [ow=t, fastareadlen=500, minhits=1, minratio=0.56, maxindel=20, qtrim=rl, untrim=t, trimq=6, k=13, untrim=t, ambiguous=all, build=1, outu=03-split_by_reference/inplanta-Tween-014-005-R1-atrimmed.fastq-R#-atrimmed-unmapped-pre.fastq.gz, in=02-chunkify_fastqs/inplanta-Tween-014-005-R1-atrimmed.fastq, in2=02-chunkify_fastqs/inplanta-Tween-014-005-R2-atrimmed.fastq, ambiguous2=best, maxindel=20000, refstats=03-split_by_reference/inplanta-Tween-014-005-R1-atrimmed.fastq-atrimmed-refstats.tsv, scafstats=03-split_by_reference/inplanta-Tween-014-005-R1-atrimmed.fastq-atrimmed-scafstats.tsv, ref=03-split_by_reference/index/ref/genome/1/merged_ref_7744785918.fa.gz, out_ta=03-split_by_reference/inplanta-Tween-014-005-R1-atrimmed.fastq-R#-atrimmed-ta-pre.fastq.gz, out_pn=03-split_by_reference/inplanta-Tween-014-005-R1-atrimmed.fastq-R#-atrimmed-pn-pre.fastq.gz]

BBMap version 36.67
Set MINIMUM_ALIGNMENT_SCORE_RATIO to 0.560
Reference set statistics will be written to 03-split_by_reference/inplanta-Tween-014-005-R1-atrimmed.fastq-atrimmed-refstats.tsv
Scaffold statistics will be written to 03-split_by_reference/inplanta-Tween-014-005-R1-atrimmed.fastq-atrimmed-scafstats.tsv
Retaining all best sites for ambiguous mappings.
NOTE:	Ignoring reference file because it already appears to have been processed.
NOTE:	If you wish to regenerate the index, please manually delete 03-split_by_reference/index/ref/genome/1/summary.txt
Set genome to 1

Loaded Reference:	12.478 seconds.
Loading index for chunk 1-26, build 1
Generated Index:	50.255 seconds.
Analyzed Index:   	24.957 seconds.
Reads that map to multiple references will be written to the first reference's stream only.
Started output stream:	0.225 seconds.
Creating ref-set statistics table:    	0.119 seconds.
Creating scaffold statistics table:   	10.842 seconds.
Cleared Memory:    	5.065 seconds.
Processing reads in paired-ended mode.
Started read stream.
Started 20 mapping threads.
Detecting finished threads: 0, 1, 2, 3, 4, 5, 6, 7, 8, 9, 10, 11, 12, 13, 14, 15, 16, 17, 18, 19

   ------------------   Results   ------------------   

Genome:                	1
Key Length:            	13
Max Indel:             	20000
Minimum Score Ratio:  	0.56
Mapping Mode:         	normal
Reads Used:           	80000000	(9433107444 bases)

Mapping:          	10702.954 seconds.
Reads/sec:       	7474.57
kBases/sec:      	881.36


Pairing data:   	pct reads	num reads 	pct bases	   num bases

mated pairs:     	 91.3366% 	 36534651 	 93.7764% 	  8846026748
bad pairs:       	  3.6495% 	  1459796 	  3.8017% 	   358620890
insert size avg: 	  188.44


Read 1 data:      	pct reads	num reads 	pct bases	   num bases

mapped:          	 98.8182% 	 39527294 	 98.8713% 	  4782901310
unambiguous:     	 83.8991% 	 33559641 	 84.1637% 	  4071420604
ambiguous:       	 14.9191% 	  5967653 	 14.7076% 	   711480706
low-Q discards:  	  0.0833% 	    33307 	  0.0413% 	     1998420

perfect best site:	 49.4032% 	 19761291 	 49.4015% 	  2389800258
semiperfect site:	 49.7150% 	 19885991 	 49.7207% 	  2405240678
rescued:         	  2.9011% 	  1160459

Match Rate:      	      NA 	       NA 	 52.9649% 	  4749395663
Error Rate:      	 49.7830% 	 19677877 	 47.0215% 	  4216447080
Sub Rate:        	 31.0863% 	 12287586 	  0.3239% 	    29047361
Del Rate:        	 26.9567% 	 10655267 	 46.6614% 	  4184155300
Ins Rate:        	  1.9548% 	   772667 	  0.0362% 	     3244419
N Rate:          	  0.3757% 	   148486 	  0.0135% 	     1213867


Read 2 data:      	pct reads	num reads 	pct bases	   num bases

mapped:          	 95.1779% 	 38071176 	 97.0402% 	  4459584814
unambiguous:     	 80.4191% 	 32167653 	 82.2552% 	  3780125728
ambiguous:       	 14.7588% 	  5903523 	 14.7850% 	   679459086
low-Q discards:  	  3.5050% 	  1401988 	  1.8304% 	    84119250

perfect best site:	 44.4008% 	 17760321 	 45.8534% 	  2107239822
semiperfect site:	 44.6937% 	 17877465 	 46.1618% 	  2121413587
rescued:         	  4.1465% 	  1658584

Match Rate:      	      NA 	       NA 	 51.9739% 	  4421853390
Error Rate:      	 53.0924% 	 20212909 	 48.0098% 	  4084598803
Sub Rate:        	 34.8153% 	 13254608 	  0.3928% 	    33417426
Del Rate:        	 26.9881% 	 10274674 	 47.5826% 	  4048254553
Ins Rate:        	  1.8941% 	   721092 	  0.0344% 	     2926824
N Rate:          	  0.5200% 	   197968 	  0.0163% 	     1387174

Total time:     	10808.537 seconds.
java -Djava.library.path=/home/darcyabjones/local/bbmap/36.67-bin/jni/ -ea -Xmx220001m -cp /home/darcyabjones/local/bbmap/36.67-bin/current/ align2.BBSplitter ow=t fastareadlen=500 minhits=1 minratio=0.56 maxindel=20 qtrim=rl untrim=t trimq=6 k=13 untrim=t ambiguous=all path=03-split_by_reference/index build=1 basename=03-split_by_reference/inplanta-Tween-014-006-R1-atrimmed.fastq-R#-atrimmed-%-pre.fastq.gz outu=03-split_by_reference/inplanta-Tween-014-006-R1-atrimmed.fastq-R#-atrimmed-unmapped-pre.fastq.gz in=02-chunkify_fastqs/inplanta-Tween-014-006-R1-atrimmed.fastq in2=02-chunkify_fastqs/inplanta-Tween-014-006-R2-atrimmed.fastq ambiguous2=best maxindel=20000 refstats=03-split_by_reference/inplanta-Tween-014-006-R1-atrimmed.fastq-atrimmed-refstats.tsv scafstats=03-split_by_reference/inplanta-Tween-014-006-R1-atrimmed.fastq-atrimmed-scafstats.tsv
Executing align2.BBSplitter [ow=t, fastareadlen=500, minhits=1, minratio=0.56, maxindel=20, qtrim=rl, untrim=t, trimq=6, k=13, untrim=t, ambiguous=all, path=03-split_by_reference/index, build=1, basename=03-split_by_reference/inplanta-Tween-014-006-R1-atrimmed.fastq-R#-atrimmed-%-pre.fastq.gz, outu=03-split_by_reference/inplanta-Tween-014-006-R1-atrimmed.fastq-R#-atrimmed-unmapped-pre.fastq.gz, in=02-chunkify_fastqs/inplanta-Tween-014-006-R1-atrimmed.fastq, in2=02-chunkify_fastqs/inplanta-Tween-014-006-R2-atrimmed.fastq, ambiguous2=best, maxindel=20000, refstats=03-split_by_reference/inplanta-Tween-014-006-R1-atrimmed.fastq-atrimmed-refstats.tsv, scafstats=03-split_by_reference/inplanta-Tween-014-006-R1-atrimmed.fastq-atrimmed-scafstats.tsv]

Merged reference file 03-split_by_reference/index/ref/genome/1/merged_ref_7744785918.fa.gz already exists; skipping merge.
Ref merge time:     	0.032 seconds.
Executing align2.BBMap [ow=t, fastareadlen=500, minhits=1, minratio=0.56, maxindel=20, qtrim=rl, untrim=t, trimq=6, k=13, untrim=t, ambiguous=all, build=1, outu=03-split_by_reference/inplanta-Tween-014-006-R1-atrimmed.fastq-R#-atrimmed-unmapped-pre.fastq.gz, in=02-chunkify_fastqs/inplanta-Tween-014-006-R1-atrimmed.fastq, in2=02-chunkify_fastqs/inplanta-Tween-014-006-R2-atrimmed.fastq, ambiguous2=best, maxindel=20000, refstats=03-split_by_reference/inplanta-Tween-014-006-R1-atrimmed.fastq-atrimmed-refstats.tsv, scafstats=03-split_by_reference/inplanta-Tween-014-006-R1-atrimmed.fastq-atrimmed-scafstats.tsv, ref=03-split_by_reference/index/ref/genome/1/merged_ref_7744785918.fa.gz, out_ta=03-split_by_reference/inplanta-Tween-014-006-R1-atrimmed.fastq-R#-atrimmed-ta-pre.fastq.gz, out_pn=03-split_by_reference/inplanta-Tween-014-006-R1-atrimmed.fastq-R#-atrimmed-pn-pre.fastq.gz]

BBMap version 36.67
Set MINIMUM_ALIGNMENT_SCORE_RATIO to 0.560
Reference set statistics will be written to 03-split_by_reference/inplanta-Tween-014-006-R1-atrimmed.fastq-atrimmed-refstats.tsv
Scaffold statistics will be written to 03-split_by_reference/inplanta-Tween-014-006-R1-atrimmed.fastq-atrimmed-scafstats.tsv
Retaining all best sites for ambiguous mappings.
NOTE:	Ignoring reference file because it already appears to have been processed.
NOTE:	If you wish to regenerate the index, please manually delete 03-split_by_reference/index/ref/genome/1/summary.txt
Set genome to 1

Loaded Reference:	10.249 seconds.
Loading index for chunk 1-26, build 1
Generated Index:	41.048 seconds.
Analyzed Index:   	25.765 seconds.
Reads that map to multiple references will be written to the first reference's stream only.
Started output stream:	0.116 seconds.
Creating ref-set statistics table:    	0.103 seconds.
Creating scaffold statistics table:   	0.525 seconds.
Cleared Memory:    	9.820 seconds.
Processing reads in paired-ended mode.
Started read stream.
Started 20 mapping threads.
Detecting finished threads: 0, 1, 2, 3, 4, 5, 6, 7, 8, 9, 10, 11, 12, 13, 14, 15, 16, 17, 18, 19

   ------------------   Results   ------------------   

Genome:                	1
Key Length:            	13
Max Indel:             	20000
Minimum Score Ratio:  	0.56
Mapping Mode:         	normal
Reads Used:           	80000000	(9410068672 bases)

Mapping:          	10807.005 seconds.
Reads/sec:       	7402.61
kBases/sec:      	870.74


Pairing data:   	pct reads	num reads 	pct bases	   num bases

mated pairs:     	 91.1725% 	 36468996 	 93.8459% 	  8830967460
bad pairs:       	  3.6174% 	  1446948 	  3.7787% 	   355579048
insert size avg: 	  187.80


Read 1 data:      	pct reads	num reads 	pct bases	   num bases

mapped:          	 98.7968% 	 39518728 	 98.8594% 	  4782044085
unambiguous:     	 83.8754% 	 33550173 	 84.1510% 	  4070568411
ambiguous:       	 14.9214% 	  5968555 	 14.7084% 	   711475674
low-Q discards:  	  0.0994% 	    39742 	  0.0493% 	     2384520

perfect best site:	 50.3157% 	 20126264 	 50.3289% 	  2434517344
semiperfect site:	 50.6324% 	 20252948 	 50.6533% 	  2450208383
rescued:         	  2.8596% 	  1143829

Match Rate:      	      NA 	       NA 	 52.9227% 	  4749298583
Error Rate:      	 48.8586% 	 19308292 	 47.0636% 	  4223508010
Sub Rate:        	 29.7958% 	 11774928 	  0.3151% 	    28279630
Del Rate:        	 26.9775% 	 10661183 	 46.7124% 	  4191990578
Ins Rate:        	  1.9507% 	   770902 	  0.0361% 	     3237802
N Rate:          	  0.3442% 	   136037 	  0.0137% 	     1228070


Read 2 data:      	pct reads	num reads 	pct bases	   num bases

mapped:          	 94.9844% 	 37993745 	 96.9416% 	  4432994625
unambiguous:     	 80.2080% 	 32083191 	 82.1291% 	  3755641940
ambiguous:       	 14.7764% 	  5910554 	 14.8125% 	   677352685
low-Q discards:  	  3.7021% 	  1480844 	  1.9430% 	    88850614

perfect best site:	 44.9172% 	 17966871 	 46.5085% 	  2126763080
semiperfect site:	 45.2104% 	 18084141 	 46.8178% 	  2140908936
rescued:         	  4.1518% 	  1660724

Match Rate:      	      NA 	       NA 	 51.9587% 	  4395579294
Error Rate:      	 52.4113% 	 19913024 	 48.0221% 	  4062545814
Sub Rate:        	 33.8843% 	 12873935 	  0.3888% 	    32888522
Del Rate:        	 26.8977% 	 10219430 	 47.5990% 	  4026754171
Ins Rate:        	  1.8903% 	   718201 	  0.0343% 	     2903121
N Rate:          	  0.5852% 	   222348 	  0.0192% 	     1623688

Total time:     	10896.273 seconds.
java -Djava.library.path=/home/darcyabjones/local/bbmap/36.67-bin/jni/ -ea -Xmx220001m -cp /home/darcyabjones/local/bbmap/36.67-bin/current/ align2.BBSplitter ow=t fastareadlen=500 minhits=1 minratio=0.56 maxindel=20 qtrim=rl untrim=t trimq=6 k=13 untrim=t ambiguous=all path=03-split_by_reference/index build=1 basename=03-split_by_reference/inplanta-Tween-014-007-R1-atrimmed.fastq-R#-atrimmed-%-pre.fastq.gz outu=03-split_by_reference/inplanta-Tween-014-007-R1-atrimmed.fastq-R#-atrimmed-unmapped-pre.fastq.gz in=02-chunkify_fastqs/inplanta-Tween-014-007-R1-atrimmed.fastq in2=02-chunkify_fastqs/inplanta-Tween-014-007-R2-atrimmed.fastq ambiguous2=best maxindel=20000 refstats=03-split_by_reference/inplanta-Tween-014-007-R1-atrimmed.fastq-atrimmed-refstats.tsv scafstats=03-split_by_reference/inplanta-Tween-014-007-R1-atrimmed.fastq-atrimmed-scafstats.tsv
Executing align2.BBSplitter [ow=t, fastareadlen=500, minhits=1, minratio=0.56, maxindel=20, qtrim=rl, untrim=t, trimq=6, k=13, untrim=t, ambiguous=all, path=03-split_by_reference/index, build=1, basename=03-split_by_reference/inplanta-Tween-014-007-R1-atrimmed.fastq-R#-atrimmed-%-pre.fastq.gz, outu=03-split_by_reference/inplanta-Tween-014-007-R1-atrimmed.fastq-R#-atrimmed-unmapped-pre.fastq.gz, in=02-chunkify_fastqs/inplanta-Tween-014-007-R1-atrimmed.fastq, in2=02-chunkify_fastqs/inplanta-Tween-014-007-R2-atrimmed.fastq, ambiguous2=best, maxindel=20000, refstats=03-split_by_reference/inplanta-Tween-014-007-R1-atrimmed.fastq-atrimmed-refstats.tsv, scafstats=03-split_by_reference/inplanta-Tween-014-007-R1-atrimmed.fastq-atrimmed-scafstats.tsv]

Merged reference file 03-split_by_reference/index/ref/genome/1/merged_ref_7744785918.fa.gz already exists; skipping merge.
Ref merge time:     	0.082 seconds.
Executing align2.BBMap [ow=t, fastareadlen=500, minhits=1, minratio=0.56, maxindel=20, qtrim=rl, untrim=t, trimq=6, k=13, untrim=t, ambiguous=all, build=1, outu=03-split_by_reference/inplanta-Tween-014-007-R1-atrimmed.fastq-R#-atrimmed-unmapped-pre.fastq.gz, in=02-chunkify_fastqs/inplanta-Tween-014-007-R1-atrimmed.fastq, in2=02-chunkify_fastqs/inplanta-Tween-014-007-R2-atrimmed.fastq, ambiguous2=best, maxindel=20000, refstats=03-split_by_reference/inplanta-Tween-014-007-R1-atrimmed.fastq-atrimmed-refstats.tsv, scafstats=03-split_by_reference/inplanta-Tween-014-007-R1-atrimmed.fastq-atrimmed-scafstats.tsv, ref=03-split_by_reference/index/ref/genome/1/merged_ref_7744785918.fa.gz, out_ta=03-split_by_reference/inplanta-Tween-014-007-R1-atrimmed.fastq-R#-atrimmed-ta-pre.fastq.gz, out_pn=03-split_by_reference/inplanta-Tween-014-007-R1-atrimmed.fastq-R#-atrimmed-pn-pre.fastq.gz]

BBMap version 36.67
Set MINIMUM_ALIGNMENT_SCORE_RATIO to 0.560
Reference set statistics will be written to 03-split_by_reference/inplanta-Tween-014-007-R1-atrimmed.fastq-atrimmed-refstats.tsv
Scaffold statistics will be written to 03-split_by_reference/inplanta-Tween-014-007-R1-atrimmed.fastq-atrimmed-scafstats.tsv
Retaining all best sites for ambiguous mappings.
NOTE:	Ignoring reference file because it already appears to have been processed.
NOTE:	If you wish to regenerate the index, please manually delete 03-split_by_reference/index/ref/genome/1/summary.txt
Set genome to 1

Loaded Reference:	11.993 seconds.
Loading index for chunk 1-26, build 1
Generated Index:	26.114 seconds.
Analyzed Index:   	24.596 seconds.
Reads that map to multiple references will be written to the first reference's stream only.
Started output stream:	0.502 seconds.
Creating ref-set statistics table:    	0.112 seconds.
Creating scaffold statistics table:   	11.998 seconds.
Cleared Memory:    	9.626 seconds.
Processing reads in paired-ended mode.
Started read stream.
Started 20 mapping threads.
Detecting finished threads: 0, 1, 2, 3, 4, 5, 6, 7, 8, 9, 10, 11, 12, 13, 14, 15, 16, 17, 18, 19

   ------------------   Results   ------------------   

Genome:                	1
Key Length:            	13
Max Indel:             	20000
Minimum Score Ratio:  	0.56
Mapping Mode:         	normal
Reads Used:           	61068268	(7123620797 bases)

Mapping:          	8263.759 seconds.
Reads/sec:       	7389.89
kBases/sec:      	862.03


Pairing data:   	pct reads	num reads 	pct bases	   num bases

mated pairs:     	 89.9567% 	 27467503 	 93.4424% 	  6656481284
bad pairs:       	  3.5231% 	  1075742 	  3.7149% 	   264634500
insert size avg: 	  185.26


Read 1 data:      	pct reads	num reads 	pct bases	   num bases

mapped:          	 98.8051% 	 30169268 	 98.8572% 	  3654785249
unambiguous:     	 83.8022% 	 25588290 	 84.0598% 	  3107722066
ambiguous:       	 15.0028% 	  4580978 	 14.7973% 	   547063183
low-Q discards:  	  0.0765% 	    23346 	  0.0379% 	     1400760

perfect best site:	 50.6143% 	 15454637 	 50.6146% 	  1871239115
semiperfect site:	 50.9188% 	 15547604 	 50.9262% 	  1882758248
rescued:         	  2.7311% 	   833926

Match Rate:      	      NA 	       NA 	 52.8800% 	  3630082799
Error Rate:      	 48.5750% 	 14654726 	 47.1074% 	  3233810015
Sub Rate:        	 29.3553% 	  8856269 	  0.3116% 	    21388292
Del Rate:        	 27.0526% 	  8161573 	 46.7601% 	  3209968993
Ins Rate:        	  1.9382% 	   584744 	  0.0357% 	     2452730
N Rate:          	  0.3226% 	    97335 	  0.0125% 	      861428


Read 2 data:      	pct reads	num reads 	pct bases	   num bases

mapped:          	 93.6505% 	 28595366 	 96.2387% 	  3297701799
unambiguous:     	 78.8815% 	 24085779 	 81.3376% 	  2787100601
ambiguous:       	 14.7690% 	  4509587 	 14.9012% 	   510601198
low-Q discards:  	  4.9904% 	  1523762 	  2.6681% 	    91425702

perfect best site:	 42.8020% 	 13069224 	 44.8134% 	  1535569464
semiperfect site:	 43.0601% 	 13148039 	 45.0876% 	  1544966378
rescued:         	  4.2317% 	  1292127

Match Rate:      	      NA 	       NA 	 52.1540% 	  3267785672
Error Rate:      	 54.0465% 	 15454800 	 47.8297% 	  2996839354
Sub Rate:        	 36.3718% 	 10400660 	  0.4262% 	    26705555
Del Rate:        	 26.4904% 	  7575017 	 47.3685% 	  2967942174
Ins Rate:        	  1.8947% 	   541804 	  0.0350% 	     2191625
N Rate:          	  0.5142% 	   147027 	  0.0163% 	     1018947

Total time:     	8350.491 seconds.
	Command being timed: "bash ./03b-split_by_reference_tween.sh"
	User time (seconds): 1701008.51
	System time (seconds): 1260.99
	Percent of CPU this job got: 1978%
	Elapsed (wall clock) time (h:mm:ss or m:ss): 23:53:40
	Average shared text size (kbytes): 0
	Average unshared data size (kbytes): 0
	Average stack size (kbytes): 0
	Average total size (kbytes): 0
	Maximum resident set size (kbytes): 74465932
	Average resident set size (kbytes): 0
	Major (requiring I/O) page faults: 0
	Minor (reclaiming a frame) page faults: 2516144
	Voluntary context switches: 17201116
	Involuntary context switches: 170486305
	Swaps: 0
	File system inputs: 0
	File system outputs: 93441784
	Socket messages sent: 0
	Socket messages received: 0
	Signals delivered: 0
	Page size (bytes): 4096
	Exit status: 0
