java -Djava.library.path=/home/darcyabjones/local/bbmap/36.67-bin/jni/ -ea -Xmx219987m -cp /home/darcyabjones/local/bbmap/36.67-bin/current/ align2.BBSplitter ow=t fastareadlen=500 minhits=1 minratio=0.56 maxindel=20 qtrim=rl untrim=t trimq=6 k=13 untrim=t ambiguous=all path=03-split_by_reference/index build=1 basename=03-split_by_reference/inplanta-3KO-023-008-R1-atrimmed.fastq-R#-atrimmed-%-pre.fastq.gz outu=03-split_by_reference/inplanta-3KO-023-008-R1-atrimmed.fastq-R#-atrimmed-unmapped-pre.fastq.gz in=02-chunkify_fastqs/inplanta-3KO-023-008-R1-atrimmed.fastq in2=02-chunkify_fastqs/inplanta-3KO-023-008-R2-atrimmed.fastq ambiguous2=best maxindel=20000 refstats=03-split_by_reference/inplanta-3KO-023-008-R1-atrimmed.fastq-atrimmed-refstats.tsv scafstats=03-split_by_reference/inplanta-3KO-023-008-R1-atrimmed.fastq-atrimmed-scafstats.tsv
Executing align2.BBSplitter [ow=t, fastareadlen=500, minhits=1, minratio=0.56, maxindel=20, qtrim=rl, untrim=t, trimq=6, k=13, untrim=t, ambiguous=all, path=03-split_by_reference/index, build=1, basename=03-split_by_reference/inplanta-3KO-023-008-R1-atrimmed.fastq-R#-atrimmed-%-pre.fastq.gz, outu=03-split_by_reference/inplanta-3KO-023-008-R1-atrimmed.fastq-R#-atrimmed-unmapped-pre.fastq.gz, in=02-chunkify_fastqs/inplanta-3KO-023-008-R1-atrimmed.fastq, in2=02-chunkify_fastqs/inplanta-3KO-023-008-R2-atrimmed.fastq, ambiguous2=best, maxindel=20000, refstats=03-split_by_reference/inplanta-3KO-023-008-R1-atrimmed.fastq-atrimmed-refstats.tsv, scafstats=03-split_by_reference/inplanta-3KO-023-008-R1-atrimmed.fastq-atrimmed-scafstats.tsv]

Merged reference file 03-split_by_reference/index/ref/genome/1/merged_ref_7744785918.fa.gz already exists; skipping merge.
Ref merge time:     	2.138 seconds.
Executing align2.BBMap [ow=t, fastareadlen=500, minhits=1, minratio=0.56, maxindel=20, qtrim=rl, untrim=t, trimq=6, k=13, untrim=t, ambiguous=all, build=1, outu=03-split_by_reference/inplanta-3KO-023-008-R1-atrimmed.fastq-R#-atrimmed-unmapped-pre.fastq.gz, in=02-chunkify_fastqs/inplanta-3KO-023-008-R1-atrimmed.fastq, in2=02-chunkify_fastqs/inplanta-3KO-023-008-R2-atrimmed.fastq, ambiguous2=best, maxindel=20000, refstats=03-split_by_reference/inplanta-3KO-023-008-R1-atrimmed.fastq-atrimmed-refstats.tsv, scafstats=03-split_by_reference/inplanta-3KO-023-008-R1-atrimmed.fastq-atrimmed-scafstats.tsv, ref=03-split_by_reference/index/ref/genome/1/merged_ref_7744785918.fa.gz, out_ta=03-split_by_reference/inplanta-3KO-023-008-R1-atrimmed.fastq-R#-atrimmed-ta-pre.fastq.gz, out_pn=03-split_by_reference/inplanta-3KO-023-008-R1-atrimmed.fastq-R#-atrimmed-pn-pre.fastq.gz]

BBMap version 36.67
Set MINIMUM_ALIGNMENT_SCORE_RATIO to 0.560
Reference set statistics will be written to 03-split_by_reference/inplanta-3KO-023-008-R1-atrimmed.fastq-atrimmed-refstats.tsv
Scaffold statistics will be written to 03-split_by_reference/inplanta-3KO-023-008-R1-atrimmed.fastq-atrimmed-scafstats.tsv
Retaining all best sites for ambiguous mappings.
NOTE:	Ignoring reference file because it already appears to have been processed.
NOTE:	If you wish to regenerate the index, please manually delete 03-split_by_reference/index/ref/genome/1/summary.txt
Set genome to 1

Loaded Reference:	9.595 seconds.
Loading index for chunk 1-26, build 1
Generated Index:	39.679 seconds.
Analyzed Index:   	29.609 seconds.
Reads that map to multiple references will be written to the first reference's stream only.
Started output stream:	0.086 seconds.
Creating ref-set statistics table:    	0.104 seconds.
Creating scaffold statistics table:   	8.507 seconds.
Cleared Memory:    	6.674 seconds.
Processing reads in paired-ended mode.
Started read stream.
Started 16 mapping threads.
Detecting finished threads: 0, 1, 2, 3, 4, 5, 6, 7, 8, 9, 10, 11, 12, 13, 14, 15

   ------------------   Results   ------------------   

Genome:                	1
Key Length:            	13
Max Indel:             	20000
Minimum Score Ratio:  	0.56
Mapping Mode:         	normal
Reads Used:           	54214004	(6441578559 bases)

Mapping:          	9587.067 seconds.
Reads/sec:       	5654.91
kBases/sec:      	671.90


Pairing data:   	pct reads	num reads 	pct bases	   num bases

mated pairs:     	 93.4859% 	 25341238 	 94.5142% 	  6088206812
bad pairs:       	  3.9222% 	  1063204 	  4.0264% 	   259365136
insert size avg: 	  192.44


Read 1 data:      	pct reads	num reads 	pct bases	   num bases

mapped:          	 99.1524% 	 26877235 	 99.2008% 	  3226454921
unambiguous:     	 83.0681% 	 22517262 	 83.3926% 	  2712300646
ambiguous:       	 16.0843% 	  4359973 	 15.8082% 	   514154275
low-Q discards:  	  0.0765% 	    20735 	  0.0383% 	     1244100

perfect best site:	 49.2519% 	 13350705 	 49.2746% 	  1602631916
semiperfect site:	 49.6315% 	 13453601 	 49.6654% 	  1615341481
rescued:         	  3.3965% 	   920687

Match Rate:      	      NA 	       NA 	 52.3031% 	  3202843114
Error Rate:      	 50.1592% 	 13481398 	 47.6870% 	  2920168505
Sub Rate:        	 31.8147% 	  8550911 	  0.3394% 	    20783568
Del Rate:        	 26.5968% 	  7148492 	 47.3113% 	  2897159969
Ins Rate:        	  2.0089% 	   539947 	  0.0363% 	     2224968
N Rate:          	  0.2926% 	    78654 	  0.0099% 	      603271


Read 2 data:      	pct reads	num reads 	pct bases	   num bases

mapped:          	 97.5933% 	 26454623 	 98.4106% 	  3138443880
unambiguous:     	 81.5869% 	 22115761 	 82.5705% 	  2633283096
ambiguous:       	 16.0064% 	  4338862 	 15.8401% 	   505160784
low-Q discards:  	  1.5258% 	   413606 	  0.7782% 	    24816432

perfect best site:	 48.5220% 	 13152861 	 49.3184% 	  1572828260
semiperfect site:	 48.9225% 	 13261420 	 49.7377% 	  1586200567
rescued:         	  4.4912% 	  1217418

Match Rate:      	      NA 	       NA 	 51.0961% 	  3114584947
Error Rate:      	 50.1067% 	 13255543 	 48.8949% 	  2980410548
Sub Rate:        	 30.5437% 	  8080227 	  0.3488% 	    21263240
Del Rate:        	 27.2916% 	  7219894 	 48.5125% 	  2957103746
Ins Rate:        	  1.9392% 	   513001 	  0.0335% 	     2043562
N Rate:          	  0.3375% 	    89276 	  0.0091% 	      552131

Total time:     	9683.233 seconds.
	Command being timed: "bash ./03b-split_by_reference.sh"
	User time (seconds): 153054.27
	System time (seconds): 139.04
	Percent of CPU this job got: 1581%
	Elapsed (wall clock) time (h:mm:ss or m:ss): 2:41:25
	Average shared text size (kbytes): 0
	Average unshared data size (kbytes): 0
	Average stack size (kbytes): 0
	Average total size (kbytes): 0
	Maximum resident set size (kbytes): 70378888
	Average resident set size (kbytes): 0
	Major (requiring I/O) page faults: 0
	Minor (reclaiming a frame) page faults: 232956
	Voluntary context switches: 1575092
	Involuntary context switches: 15378314
	Swaps: 0
	File system inputs: 0
	File system outputs: 8561128
	Socket messages sent: 0
	Socket messages received: 0
	Signals delivered: 0
	Page size (bytes): 4096
	Exit status: 0
