java -Djava.library.path=/home/darcyabjones/local/bbmap/36.67-bin/jni/ -ea -Xmx220007m -cp /home/darcyabjones/local/bbmap/36.67-bin/current/ align2.BBSplitter ow=t fastareadlen=500 minhits=1 minratio=0.56 maxindel=20 qtrim=rl untrim=t trimq=6 k=13 untrim=t ambiguous=all path=03-split_by_reference/index build=1 basename=03-split_by_reference/inplanta-SN15-019-003-R1-atrimmed.fastq-R#-atrimmed-%-pre.fastq.gz outu=03-split_by_reference/inplanta-SN15-019-003-R1-atrimmed.fastq-R#-atrimmed-unmapped-pre.fastq.gz in=02-chunkify_fastqs/inplanta-SN15-019-003-R1-atrimmed.fastq in2=02-chunkify_fastqs/inplanta-SN15-019-003-R2-atrimmed.fastq ambiguous2=best maxindel=20000 refstats=03-split_by_reference/inplanta-SN15-019-003-R1-atrimmed.fastq-atrimmed-refstats.tsv scafstats=03-split_by_reference/inplanta-SN15-019-003-R1-atrimmed.fastq-atrimmed-scafstats.tsv
Executing align2.BBSplitter [ow=t, fastareadlen=500, minhits=1, minratio=0.56, maxindel=20, qtrim=rl, untrim=t, trimq=6, k=13, untrim=t, ambiguous=all, path=03-split_by_reference/index, build=1, basename=03-split_by_reference/inplanta-SN15-019-003-R1-atrimmed.fastq-R#-atrimmed-%-pre.fastq.gz, outu=03-split_by_reference/inplanta-SN15-019-003-R1-atrimmed.fastq-R#-atrimmed-unmapped-pre.fastq.gz, in=02-chunkify_fastqs/inplanta-SN15-019-003-R1-atrimmed.fastq, in2=02-chunkify_fastqs/inplanta-SN15-019-003-R2-atrimmed.fastq, ambiguous2=best, maxindel=20000, refstats=03-split_by_reference/inplanta-SN15-019-003-R1-atrimmed.fastq-atrimmed-refstats.tsv, scafstats=03-split_by_reference/inplanta-SN15-019-003-R1-atrimmed.fastq-atrimmed-scafstats.tsv]

Merged reference file 03-split_by_reference/index/ref/genome/1/merged_ref_7744785918.fa.gz already exists; skipping merge.
Ref merge time:     	0.042 seconds.
Executing align2.BBMap [ow=t, fastareadlen=500, minhits=1, minratio=0.56, maxindel=20, qtrim=rl, untrim=t, trimq=6, k=13, untrim=t, ambiguous=all, build=1, outu=03-split_by_reference/inplanta-SN15-019-003-R1-atrimmed.fastq-R#-atrimmed-unmapped-pre.fastq.gz, in=02-chunkify_fastqs/inplanta-SN15-019-003-R1-atrimmed.fastq, in2=02-chunkify_fastqs/inplanta-SN15-019-003-R2-atrimmed.fastq, ambiguous2=best, maxindel=20000, refstats=03-split_by_reference/inplanta-SN15-019-003-R1-atrimmed.fastq-atrimmed-refstats.tsv, scafstats=03-split_by_reference/inplanta-SN15-019-003-R1-atrimmed.fastq-atrimmed-scafstats.tsv, ref=03-split_by_reference/index/ref/genome/1/merged_ref_7744785918.fa.gz, out_ta=03-split_by_reference/inplanta-SN15-019-003-R1-atrimmed.fastq-R#-atrimmed-ta-pre.fastq.gz, out_pn=03-split_by_reference/inplanta-SN15-019-003-R1-atrimmed.fastq-R#-atrimmed-pn-pre.fastq.gz]

BBMap version 36.67
Set MINIMUM_ALIGNMENT_SCORE_RATIO to 0.560
Reference set statistics will be written to 03-split_by_reference/inplanta-SN15-019-003-R1-atrimmed.fastq-atrimmed-refstats.tsv
Scaffold statistics will be written to 03-split_by_reference/inplanta-SN15-019-003-R1-atrimmed.fastq-atrimmed-scafstats.tsv
Retaining all best sites for ambiguous mappings.
NOTE:	Ignoring reference file because it already appears to have been processed.
NOTE:	If you wish to regenerate the index, please manually delete 03-split_by_reference/index/ref/genome/1/summary.txt
Set genome to 1

Loaded Reference:	12.156 seconds.
Loading index for chunk 1-26, build 1
Generated Index:	28.214 seconds.
Analyzed Index:   	25.326 seconds.
Reads that map to multiple references will be written to the first reference's stream only.
Started output stream:	0.023 seconds.
Creating ref-set statistics table:    	0.106 seconds.
Creating scaffold statistics table:   	11.483 seconds.
Cleared Memory:    	1.116 seconds.
Processing reads in paired-ended mode.
Started read stream.
Started 20 mapping threads.
Detecting finished threads: 0, 1, 2, 3, 4, 5, 6, 7, 8, 9, 10, 11, 12, 13, 14, 15, 16, 17, 18, 19

   ------------------   Results   ------------------   

Genome:                	1
Key Length:            	13
Max Indel:             	20000
Minimum Score Ratio:  	0.56
Mapping Mode:         	normal
Reads Used:           	80000000	(9630744611 bases)

Mapping:          	10903.617 seconds.
Reads/sec:       	7337.01
kBases/sec:      	883.26


Pairing data:   	pct reads	num reads 	pct bases	   num bases

mated pairs:     	 94.4685% 	 37787401 	 95.2420% 	  9172512850
bad pairs:       	  3.4480% 	  1379181 	  3.5242% 	   339409894
insert size avg: 	  197.25


Read 1 data:      	pct reads	num reads 	pct bases	   num bases

mapped:          	 99.1127% 	 39645098 	 99.1414% 	  4811410167
unambiguous:     	 85.5905% 	 34236207 	 85.8040% 	  4164133882
ambiguous:       	 13.5222% 	  5408891 	 13.3374% 	   647276285
low-Q discards:  	  0.0504% 	    20163 	  0.0249% 	     1209780

perfect best site:	 51.7178% 	 20687129 	 51.6974% 	  2508918084
semiperfect site:	 52.0310% 	 20812412 	 52.0174% 	  2524444981
rescued:         	  3.1841% 	  1273621

Match Rate:      	      NA 	       NA 	 53.7667% 	  4779441451
Error Rate:      	 47.7057% 	 18912988 	 46.2260% 	  4109128846
Sub Rate:        	 28.9279% 	 11468493 	  0.3158% 	    28073489
Del Rate:        	 26.2829% 	 10419866 	 45.8736% 	  4077808196
Ins Rate:        	  1.9740% 	   782613 	  0.0365% 	     3247161
N Rate:          	  0.2044% 	    81036 	  0.0073% 	      648066


Read 2 data:      	pct reads	num reads 	pct bases	   num bases

mapped:          	 98.0771% 	 39230849 	 98.6236% 	  4711903958
unambiguous:     	 84.5101% 	 33804043 	 85.1874% 	  4069966736
ambiguous:       	 13.5670% 	  5426806 	 13.4362% 	   641937222
low-Q discards:  	  1.0169% 	   406752 	  0.5108% 	    24405120

perfect best site:	 51.2832% 	 20513283 	 51.8424% 	  2476857334
semiperfect site:	 51.6323% 	 20652914 	 52.2033% 	  2494099111
rescued:         	  4.0717% 	  1628665

Match Rate:      	      NA 	       NA 	 52.4957% 	  4680203402
Error Rate:      	 47.3976% 	 18594498 	 47.4946% 	  4234340875
Sub Rate:        	 27.1340% 	 10644884 	  0.3125% 	    27864280
Del Rate:        	 27.2045% 	 10672555 	 47.1488% 	  4203506529
Ins Rate:        	  1.8901% 	   741497 	  0.0333% 	     2970066
N Rate:          	  0.5760% 	   225968 	  0.0097% 	      866210

Total time:     	10984.080 seconds.
java -Djava.library.path=/home/darcyabjones/local/bbmap/36.67-bin/jni/ -ea -Xmx220006m -cp /home/darcyabjones/local/bbmap/36.67-bin/current/ align2.BBSplitter ow=t fastareadlen=500 minhits=1 minratio=0.56 maxindel=20 qtrim=rl untrim=t trimq=6 k=13 untrim=t ambiguous=all path=03-split_by_reference/index build=1 basename=03-split_by_reference/inplanta-SN15-019-004-R1-atrimmed.fastq-R#-atrimmed-%-pre.fastq.gz outu=03-split_by_reference/inplanta-SN15-019-004-R1-atrimmed.fastq-R#-atrimmed-unmapped-pre.fastq.gz in=02-chunkify_fastqs/inplanta-SN15-019-004-R1-atrimmed.fastq in2=02-chunkify_fastqs/inplanta-SN15-019-004-R2-atrimmed.fastq ambiguous2=best maxindel=20000 refstats=03-split_by_reference/inplanta-SN15-019-004-R1-atrimmed.fastq-atrimmed-refstats.tsv scafstats=03-split_by_reference/inplanta-SN15-019-004-R1-atrimmed.fastq-atrimmed-scafstats.tsv
Executing align2.BBSplitter [ow=t, fastareadlen=500, minhits=1, minratio=0.56, maxindel=20, qtrim=rl, untrim=t, trimq=6, k=13, untrim=t, ambiguous=all, path=03-split_by_reference/index, build=1, basename=03-split_by_reference/inplanta-SN15-019-004-R1-atrimmed.fastq-R#-atrimmed-%-pre.fastq.gz, outu=03-split_by_reference/inplanta-SN15-019-004-R1-atrimmed.fastq-R#-atrimmed-unmapped-pre.fastq.gz, in=02-chunkify_fastqs/inplanta-SN15-019-004-R1-atrimmed.fastq, in2=02-chunkify_fastqs/inplanta-SN15-019-004-R2-atrimmed.fastq, ambiguous2=best, maxindel=20000, refstats=03-split_by_reference/inplanta-SN15-019-004-R1-atrimmed.fastq-atrimmed-refstats.tsv, scafstats=03-split_by_reference/inplanta-SN15-019-004-R1-atrimmed.fastq-atrimmed-scafstats.tsv]

Merged reference file 03-split_by_reference/index/ref/genome/1/merged_ref_7744785918.fa.gz already exists; skipping merge.
Ref merge time:     	0.067 seconds.
Executing align2.BBMap [ow=t, fastareadlen=500, minhits=1, minratio=0.56, maxindel=20, qtrim=rl, untrim=t, trimq=6, k=13, untrim=t, ambiguous=all, build=1, outu=03-split_by_reference/inplanta-SN15-019-004-R1-atrimmed.fastq-R#-atrimmed-unmapped-pre.fastq.gz, in=02-chunkify_fastqs/inplanta-SN15-019-004-R1-atrimmed.fastq, in2=02-chunkify_fastqs/inplanta-SN15-019-004-R2-atrimmed.fastq, ambiguous2=best, maxindel=20000, refstats=03-split_by_reference/inplanta-SN15-019-004-R1-atrimmed.fastq-atrimmed-refstats.tsv, scafstats=03-split_by_reference/inplanta-SN15-019-004-R1-atrimmed.fastq-atrimmed-scafstats.tsv, ref=03-split_by_reference/index/ref/genome/1/merged_ref_7744785918.fa.gz, out_ta=03-split_by_reference/inplanta-SN15-019-004-R1-atrimmed.fastq-R#-atrimmed-ta-pre.fastq.gz, out_pn=03-split_by_reference/inplanta-SN15-019-004-R1-atrimmed.fastq-R#-atrimmed-pn-pre.fastq.gz]

BBMap version 36.67
Set MINIMUM_ALIGNMENT_SCORE_RATIO to 0.560
Reference set statistics will be written to 03-split_by_reference/inplanta-SN15-019-004-R1-atrimmed.fastq-atrimmed-refstats.tsv
Scaffold statistics will be written to 03-split_by_reference/inplanta-SN15-019-004-R1-atrimmed.fastq-atrimmed-scafstats.tsv
Retaining all best sites for ambiguous mappings.
NOTE:	Ignoring reference file because it already appears to have been processed.
NOTE:	If you wish to regenerate the index, please manually delete 03-split_by_reference/index/ref/genome/1/summary.txt
Set genome to 1

Loaded Reference:	10.429 seconds.
Loading index for chunk 1-26, build 1
Generated Index:	25.299 seconds.
Analyzed Index:   	24.514 seconds.
Reads that map to multiple references will be written to the first reference's stream only.
Started output stream:	0.129 seconds.
Creating ref-set statistics table:    	13.210 seconds.
Creating scaffold statistics table:   	0.831 seconds.
Cleared Memory:    	9.173 seconds.
Processing reads in paired-ended mode.
Started read stream.
Started 20 mapping threads.
Detecting finished threads: 0, 1, 2, 3, 4, 5, 6, 7, 8, 9, 10, 11, 12, 13, 14, 15, 16, 17, 18, 19

   ------------------   Results   ------------------   

Genome:                	1
Key Length:            	13
Max Indel:             	20000
Minimum Score Ratio:  	0.56
Mapping Mode:         	normal
Reads Used:           	80000000	(9630548198 bases)

Mapping:          	10719.518 seconds.
Reads/sec:       	7463.02
kBases/sec:      	898.41


Pairing data:   	pct reads	num reads 	pct bases	   num bases

mated pairs:     	 94.4796% 	 37791834 	 95.2749% 	  9175493464
bad pairs:       	  3.4520% 	  1380801 	  3.5291% 	   339873366
insert size avg: 	  197.34


Read 1 data:      	pct reads	num reads 	pct bases	   num bases

mapped:          	 99.1204% 	 39648151 	 99.1439% 	  4812454276
unambiguous:     	 85.5989% 	 34239549 	 85.8101% 	  4165231845
ambiguous:       	 13.5215% 	  5408602 	 13.3338% 	   647222431
low-Q discards:  	  0.0414% 	    16571 	  0.0205% 	      994260

perfect best site:	 51.7303% 	 20692135 	 51.7110% 	  2510058280
semiperfect site:	 52.0412% 	 20816481 	 52.0285% 	  2525469596
rescued:         	  3.1845% 	  1273818

Match Rate:      	      NA 	       NA 	 53.7781% 	  4780476758
Error Rate:      	 47.7062% 	 18914638 	 46.2151% 	  4108178099
Sub Rate:        	 28.9499% 	 11478084 	  0.3164% 	    28127409
Del Rate:        	 26.2638% 	 10413098 	 45.8622% 	  4076808416
Ins Rate:        	  1.9696% 	   780911 	  0.0365% 	     3242274
N Rate:          	  0.1876% 	    74363 	  0.0068% 	      607835


Read 2 data:      	pct reads	num reads 	pct bases	   num bases

mapped:          	 98.0818% 	 39232738 	 98.6263% 	  4710922138
unambiguous:     	 84.5148% 	 33805912 	 85.1921% 	  4069231368
ambiguous:       	 13.5671% 	  5426826 	 13.4342% 	   641690770
low-Q discards:  	  1.0056% 	   402221 	  0.5052% 	    24133259

perfect best site:	 51.2570% 	 20502788 	 51.8297% 	  2475665774
semiperfect site:	 51.6036% 	 20641440 	 52.1882% 	  2492786935
rescued:         	  4.1138% 	  1645527

Match Rate:      	      NA 	       NA 	 52.5524% 	  4679090438
Error Rate:      	 47.4518% 	 18616640 	 47.4379% 	  4223707251
Sub Rate:        	 27.2534% 	 10692264 	  0.3145% 	    27999836
Del Rate:        	 27.1683% 	 10658880 	 47.0900% 	  4192735994
Ins Rate:        	  1.8921% 	   742321 	  0.0334% 	     2971421
N Rate:          	  0.5259% 	   206341 	  0.0097% 	      860443

Total time:     	10804.660 seconds.
java -Djava.library.path=/home/darcyabjones/local/bbmap/36.67-bin/jni/ -ea -Xmx220006m -cp /home/darcyabjones/local/bbmap/36.67-bin/current/ align2.BBSplitter ow=t fastareadlen=500 minhits=1 minratio=0.56 maxindel=20 qtrim=rl untrim=t trimq=6 k=13 untrim=t ambiguous=all path=03-split_by_reference/index build=1 basename=03-split_by_reference/inplanta-SN15-019-005-R1-atrimmed.fastq-R#-atrimmed-%-pre.fastq.gz outu=03-split_by_reference/inplanta-SN15-019-005-R1-atrimmed.fastq-R#-atrimmed-unmapped-pre.fastq.gz in=02-chunkify_fastqs/inplanta-SN15-019-005-R1-atrimmed.fastq in2=02-chunkify_fastqs/inplanta-SN15-019-005-R2-atrimmed.fastq ambiguous2=best maxindel=20000 refstats=03-split_by_reference/inplanta-SN15-019-005-R1-atrimmed.fastq-atrimmed-refstats.tsv scafstats=03-split_by_reference/inplanta-SN15-019-005-R1-atrimmed.fastq-atrimmed-scafstats.tsv
Executing align2.BBSplitter [ow=t, fastareadlen=500, minhits=1, minratio=0.56, maxindel=20, qtrim=rl, untrim=t, trimq=6, k=13, untrim=t, ambiguous=all, path=03-split_by_reference/index, build=1, basename=03-split_by_reference/inplanta-SN15-019-005-R1-atrimmed.fastq-R#-atrimmed-%-pre.fastq.gz, outu=03-split_by_reference/inplanta-SN15-019-005-R1-atrimmed.fastq-R#-atrimmed-unmapped-pre.fastq.gz, in=02-chunkify_fastqs/inplanta-SN15-019-005-R1-atrimmed.fastq, in2=02-chunkify_fastqs/inplanta-SN15-019-005-R2-atrimmed.fastq, ambiguous2=best, maxindel=20000, refstats=03-split_by_reference/inplanta-SN15-019-005-R1-atrimmed.fastq-atrimmed-refstats.tsv, scafstats=03-split_by_reference/inplanta-SN15-019-005-R1-atrimmed.fastq-atrimmed-scafstats.tsv]

Merged reference file 03-split_by_reference/index/ref/genome/1/merged_ref_7744785918.fa.gz already exists; skipping merge.
Ref merge time:     	0.043 seconds.
Executing align2.BBMap [ow=t, fastareadlen=500, minhits=1, minratio=0.56, maxindel=20, qtrim=rl, untrim=t, trimq=6, k=13, untrim=t, ambiguous=all, build=1, outu=03-split_by_reference/inplanta-SN15-019-005-R1-atrimmed.fastq-R#-atrimmed-unmapped-pre.fastq.gz, in=02-chunkify_fastqs/inplanta-SN15-019-005-R1-atrimmed.fastq, in2=02-chunkify_fastqs/inplanta-SN15-019-005-R2-atrimmed.fastq, ambiguous2=best, maxindel=20000, refstats=03-split_by_reference/inplanta-SN15-019-005-R1-atrimmed.fastq-atrimmed-refstats.tsv, scafstats=03-split_by_reference/inplanta-SN15-019-005-R1-atrimmed.fastq-atrimmed-scafstats.tsv, ref=03-split_by_reference/index/ref/genome/1/merged_ref_7744785918.fa.gz, out_ta=03-split_by_reference/inplanta-SN15-019-005-R1-atrimmed.fastq-R#-atrimmed-ta-pre.fastq.gz, out_pn=03-split_by_reference/inplanta-SN15-019-005-R1-atrimmed.fastq-R#-atrimmed-pn-pre.fastq.gz]

BBMap version 36.67
Set MINIMUM_ALIGNMENT_SCORE_RATIO to 0.560
Reference set statistics will be written to 03-split_by_reference/inplanta-SN15-019-005-R1-atrimmed.fastq-atrimmed-refstats.tsv
Scaffold statistics will be written to 03-split_by_reference/inplanta-SN15-019-005-R1-atrimmed.fastq-atrimmed-scafstats.tsv
Retaining all best sites for ambiguous mappings.
NOTE:	Ignoring reference file because it already appears to have been processed.
NOTE:	If you wish to regenerate the index, please manually delete 03-split_by_reference/index/ref/genome/1/summary.txt
Set genome to 1

Loaded Reference:	8.392 seconds.
Loading index for chunk 1-26, build 1
Generated Index:	25.348 seconds.
Analyzed Index:   	26.719 seconds.
Reads that map to multiple references will be written to the first reference's stream only.
Started output stream:	0.123 seconds.
Creating ref-set statistics table:    	0.126 seconds.
Creating scaffold statistics table:   	20.765 seconds.
Cleared Memory:    	0.976 seconds.
Processing reads in paired-ended mode.
Started read stream.
Started 20 mapping threads.
Detecting finished threads: 0, 1, 2, 3, 4, 5, 6, 7, 8, 9, 10, 11, 12, 13, 14, 15, 16, 17, 18, 19

   ------------------   Results   ------------------   

Genome:                	1
Key Length:            	13
Max Indel:             	20000
Minimum Score Ratio:  	0.56
Mapping Mode:         	normal
Reads Used:           	80000000	(9629719408 bases)

Mapping:          	10891.672 seconds.
Reads/sec:       	7345.06
kBases/sec:      	884.14


Pairing data:   	pct reads	num reads 	pct bases	   num bases

mated pairs:     	 94.3461% 	 37738437 	 95.1684% 	  9164451842
bad pairs:       	  3.4572% 	  1382864 	  3.5347% 	   340381104
insert size avg: 	  197.97


Read 1 data:      	pct reads	num reads 	pct bases	   num bases

mapped:          	 99.1213% 	 39648527 	 99.1437% 	  4813261674
unambiguous:     	 85.6003% 	 34240129 	 85.8103% 	  4165945765
ambiguous:       	 13.5210% 	  5408398 	 13.3334% 	   647315909
low-Q discards:  	  0.0396% 	    15823 	  0.0196% 	      949376

perfect best site:	 51.8598% 	 20743900 	 51.8419% 	  2516836958
semiperfect site:	 52.1739% 	 20869579 	 52.1627% 	  2532414365
rescued:         	  3.1799% 	  1271966

Match Rate:      	      NA 	       NA 	 53.8320% 	  4781325726
Error Rate:      	 47.5329% 	 18846086 	 46.1597% 	  4099876903
Sub Rate:        	 28.7381% 	 11394217 	  0.3147% 	    27949930
Del Rate:        	 26.2428% 	 10404896 	 45.8084% 	  4068678066
Ins Rate:        	  1.9718% 	   781773 	  0.0366% 	     3248907
N Rate:          	  0.2599% 	   103049 	  0.0083% 	      737111


Read 2 data:      	pct reads	num reads 	pct bases	   num bases

mapped:          	 97.9496% 	 39179849 	 98.5572% 	  4705994836
unambiguous:     	 84.4056% 	 33762239 	 85.1372% 	  4065203422
ambiguous:       	 13.5440% 	  5417610 	 13.4200% 	   640791414
low-Q discards:  	  1.1340% 	   453614 	  0.5700% 	    27217417

perfect best site:	 51.5343% 	 20613710 	 52.1506% 	  2490130979
semiperfect site:	 51.8854% 	 20754162 	 52.5140% 	  2507483543
rescued:         	  4.1175% 	  1647003

Match Rate:      	      NA 	       NA 	 52.5696% 	  4674434489
Error Rate:      	 47.2034% 	 18494210 	 47.4205% 	  4216586879
Sub Rate:        	 26.8850% 	 10533522 	  0.3117% 	    27719178
Del Rate:        	 27.1713% 	 10645687 	 47.0755% 	  4185906936
Ins Rate:        	  1.8863% 	   739041 	  0.0333% 	     2960765
N Rate:          	  0.3306% 	   129528 	  0.0099% 	      880404

Total time:     	10975.870 seconds.
java -Djava.library.path=/home/darcyabjones/local/bbmap/36.67-bin/jni/ -ea -Xmx220006m -cp /home/darcyabjones/local/bbmap/36.67-bin/current/ align2.BBSplitter ow=t fastareadlen=500 minhits=1 minratio=0.56 maxindel=20 qtrim=rl untrim=t trimq=6 k=13 untrim=t ambiguous=all path=03-split_by_reference/index build=1 basename=03-split_by_reference/inplanta-SN15-019-006-R1-atrimmed.fastq-R#-atrimmed-%-pre.fastq.gz outu=03-split_by_reference/inplanta-SN15-019-006-R1-atrimmed.fastq-R#-atrimmed-unmapped-pre.fastq.gz in=02-chunkify_fastqs/inplanta-SN15-019-006-R1-atrimmed.fastq in2=02-chunkify_fastqs/inplanta-SN15-019-006-R2-atrimmed.fastq ambiguous2=best maxindel=20000 refstats=03-split_by_reference/inplanta-SN15-019-006-R1-atrimmed.fastq-atrimmed-refstats.tsv scafstats=03-split_by_reference/inplanta-SN15-019-006-R1-atrimmed.fastq-atrimmed-scafstats.tsv
Executing align2.BBSplitter [ow=t, fastareadlen=500, minhits=1, minratio=0.56, maxindel=20, qtrim=rl, untrim=t, trimq=6, k=13, untrim=t, ambiguous=all, path=03-split_by_reference/index, build=1, basename=03-split_by_reference/inplanta-SN15-019-006-R1-atrimmed.fastq-R#-atrimmed-%-pre.fastq.gz, outu=03-split_by_reference/inplanta-SN15-019-006-R1-atrimmed.fastq-R#-atrimmed-unmapped-pre.fastq.gz, in=02-chunkify_fastqs/inplanta-SN15-019-006-R1-atrimmed.fastq, in2=02-chunkify_fastqs/inplanta-SN15-019-006-R2-atrimmed.fastq, ambiguous2=best, maxindel=20000, refstats=03-split_by_reference/inplanta-SN15-019-006-R1-atrimmed.fastq-atrimmed-refstats.tsv, scafstats=03-split_by_reference/inplanta-SN15-019-006-R1-atrimmed.fastq-atrimmed-scafstats.tsv]

Merged reference file 03-split_by_reference/index/ref/genome/1/merged_ref_7744785918.fa.gz already exists; skipping merge.
Ref merge time:     	0.102 seconds.
Executing align2.BBMap [ow=t, fastareadlen=500, minhits=1, minratio=0.56, maxindel=20, qtrim=rl, untrim=t, trimq=6, k=13, untrim=t, ambiguous=all, build=1, outu=03-split_by_reference/inplanta-SN15-019-006-R1-atrimmed.fastq-R#-atrimmed-unmapped-pre.fastq.gz, in=02-chunkify_fastqs/inplanta-SN15-019-006-R1-atrimmed.fastq, in2=02-chunkify_fastqs/inplanta-SN15-019-006-R2-atrimmed.fastq, ambiguous2=best, maxindel=20000, refstats=03-split_by_reference/inplanta-SN15-019-006-R1-atrimmed.fastq-atrimmed-refstats.tsv, scafstats=03-split_by_reference/inplanta-SN15-019-006-R1-atrimmed.fastq-atrimmed-scafstats.tsv, ref=03-split_by_reference/index/ref/genome/1/merged_ref_7744785918.fa.gz, out_ta=03-split_by_reference/inplanta-SN15-019-006-R1-atrimmed.fastq-R#-atrimmed-ta-pre.fastq.gz, out_pn=03-split_by_reference/inplanta-SN15-019-006-R1-atrimmed.fastq-R#-atrimmed-pn-pre.fastq.gz]

BBMap version 36.67
Set MINIMUM_ALIGNMENT_SCORE_RATIO to 0.560
Reference set statistics will be written to 03-split_by_reference/inplanta-SN15-019-006-R1-atrimmed.fastq-atrimmed-refstats.tsv
Scaffold statistics will be written to 03-split_by_reference/inplanta-SN15-019-006-R1-atrimmed.fastq-atrimmed-scafstats.tsv
Retaining all best sites for ambiguous mappings.
NOTE:	Ignoring reference file because it already appears to have been processed.
NOTE:	If you wish to regenerate the index, please manually delete 03-split_by_reference/index/ref/genome/1/summary.txt
Set genome to 1

Loaded Reference:	7.908 seconds.
Loading index for chunk 1-26, build 1
Generated Index:	221.016 seconds.
Analyzed Index:   	24.322 seconds.
Reads that map to multiple references will be written to the first reference's stream only.
Started output stream:	0.131 seconds.
Creating ref-set statistics table:    	0.119 seconds.
Creating scaffold statistics table:   	0.665 seconds.
Cleared Memory:    	8.045 seconds.
Processing reads in paired-ended mode.
Started read stream.
Started 20 mapping threads.
Detecting finished threads: 0, 1, 2, 3, 4, 5, 6, 7, 8, 9, 10, 11, 12, 13, 14, 15, 16, 17, 18, 19

   ------------------   Results   ------------------   

Genome:                	1
Key Length:            	13
Max Indel:             	20000
Minimum Score Ratio:  	0.56
Mapping Mode:         	normal
Reads Used:           	80000000	(9617537364 bases)

Mapping:          	10587.147 seconds.
Reads/sec:       	7556.33
kBases/sec:      	908.42


Pairing data:   	pct reads	num reads 	pct bases	   num bases

mated pairs:     	 94.1626% 	 37665058 	 95.0469% 	  9141171458
bad pairs:       	  3.4520% 	  1380797 	  3.5313% 	   339624798
insert size avg: 	  197.72


Read 1 data:      	pct reads	num reads 	pct bases	   num bases

mapped:          	 99.0962% 	 39638492 	 99.1337% 	  4809318249
unambiguous:     	 85.5532% 	 34221298 	 85.7778% 	  4161379698
ambiguous:       	 13.5430% 	  5417194 	 13.3559% 	   647938551
low-Q discards:  	  0.0659% 	    26340 	  0.0326% 	     1580400

perfect best site:	 51.8812% 	 20752470 	 51.8821% 	  2516979299
semiperfect site:	 52.1956% 	 20878243 	 52.2033% 	  2532564695
rescued:         	  3.1363% 	  1254535

Match Rate:      	      NA 	       NA 	 53.7667% 	  4777346000
Error Rate:      	 47.4560% 	 18810826 	 46.2227% 	  4107030477
Sub Rate:        	 28.5852% 	 11330744 	  0.3126% 	    27777991
Del Rate:        	 26.2764% 	 10415562 	 45.8734% 	  4076001192
Ins Rate:        	  1.9695% 	   780698 	  0.0366% 	     3251294
N Rate:          	  0.3197% 	   126743 	  0.0106% 	      942964


Read 2 data:      	pct reads	num reads 	pct bases	   num bases

mapped:          	 97.7921% 	 39116852 	 98.4771% 	  4693607633
unambiguous:     	 84.2376% 	 33695058 	 85.0352% 	  4052940947
ambiguous:       	 13.5545% 	  5421794 	 13.4419% 	   640666686
low-Q discards:  	  1.2934% 	   517376 	  0.6513% 	    31042558

perfect best site:	 51.3573% 	 20542921 	 52.0218% 	  2479460259
semiperfect site:	 51.7065% 	 20682608 	 52.3836% 	  2496704984
rescued:         	  4.0944% 	  1637778

Match Rate:      	      NA 	       NA 	 52.4820% 	  4661941402
Error Rate:      	 47.3108% 	 18506480 	 47.5077% 	  4220076949
Sub Rate:        	 26.9021% 	 10523266 	  0.3128% 	    27787103
Del Rate:        	 27.2071% 	 10642547 	 47.1615% 	  4189330568
Ins Rate:        	  1.8915% 	   739913 	  0.0333% 	     2959278
N Rate:          	  0.3100% 	   121271 	  0.0104% 	      919850

Total time:     	10851.479 seconds.
java -Djava.library.path=/home/darcyabjones/local/bbmap/36.67-bin/jni/ -ea -Xmx220006m -cp /home/darcyabjones/local/bbmap/36.67-bin/current/ align2.BBSplitter ow=t fastareadlen=500 minhits=1 minratio=0.56 maxindel=20 qtrim=rl untrim=t trimq=6 k=13 untrim=t ambiguous=all path=03-split_by_reference/index build=1 basename=03-split_by_reference/inplanta-SN15-019-007-R1-atrimmed.fastq-R#-atrimmed-%-pre.fastq.gz outu=03-split_by_reference/inplanta-SN15-019-007-R1-atrimmed.fastq-R#-atrimmed-unmapped-pre.fastq.gz in=02-chunkify_fastqs/inplanta-SN15-019-007-R1-atrimmed.fastq in2=02-chunkify_fastqs/inplanta-SN15-019-007-R2-atrimmed.fastq ambiguous2=best maxindel=20000 refstats=03-split_by_reference/inplanta-SN15-019-007-R1-atrimmed.fastq-atrimmed-refstats.tsv scafstats=03-split_by_reference/inplanta-SN15-019-007-R1-atrimmed.fastq-atrimmed-scafstats.tsv
Executing align2.BBSplitter [ow=t, fastareadlen=500, minhits=1, minratio=0.56, maxindel=20, qtrim=rl, untrim=t, trimq=6, k=13, untrim=t, ambiguous=all, path=03-split_by_reference/index, build=1, basename=03-split_by_reference/inplanta-SN15-019-007-R1-atrimmed.fastq-R#-atrimmed-%-pre.fastq.gz, outu=03-split_by_reference/inplanta-SN15-019-007-R1-atrimmed.fastq-R#-atrimmed-unmapped-pre.fastq.gz, in=02-chunkify_fastqs/inplanta-SN15-019-007-R1-atrimmed.fastq, in2=02-chunkify_fastqs/inplanta-SN15-019-007-R2-atrimmed.fastq, ambiguous2=best, maxindel=20000, refstats=03-split_by_reference/inplanta-SN15-019-007-R1-atrimmed.fastq-atrimmed-refstats.tsv, scafstats=03-split_by_reference/inplanta-SN15-019-007-R1-atrimmed.fastq-atrimmed-scafstats.tsv]

Merged reference file 03-split_by_reference/index/ref/genome/1/merged_ref_7744785918.fa.gz already exists; skipping merge.
Ref merge time:     	0.059 seconds.
Executing align2.BBMap [ow=t, fastareadlen=500, minhits=1, minratio=0.56, maxindel=20, qtrim=rl, untrim=t, trimq=6, k=13, untrim=t, ambiguous=all, build=1, outu=03-split_by_reference/inplanta-SN15-019-007-R1-atrimmed.fastq-R#-atrimmed-unmapped-pre.fastq.gz, in=02-chunkify_fastqs/inplanta-SN15-019-007-R1-atrimmed.fastq, in2=02-chunkify_fastqs/inplanta-SN15-019-007-R2-atrimmed.fastq, ambiguous2=best, maxindel=20000, refstats=03-split_by_reference/inplanta-SN15-019-007-R1-atrimmed.fastq-atrimmed-refstats.tsv, scafstats=03-split_by_reference/inplanta-SN15-019-007-R1-atrimmed.fastq-atrimmed-scafstats.tsv, ref=03-split_by_reference/index/ref/genome/1/merged_ref_7744785918.fa.gz, out_ta=03-split_by_reference/inplanta-SN15-019-007-R1-atrimmed.fastq-R#-atrimmed-ta-pre.fastq.gz, out_pn=03-split_by_reference/inplanta-SN15-019-007-R1-atrimmed.fastq-R#-atrimmed-pn-pre.fastq.gz]

BBMap version 36.67
Set MINIMUM_ALIGNMENT_SCORE_RATIO to 0.560
Reference set statistics will be written to 03-split_by_reference/inplanta-SN15-019-007-R1-atrimmed.fastq-atrimmed-refstats.tsv
Scaffold statistics will be written to 03-split_by_reference/inplanta-SN15-019-007-R1-atrimmed.fastq-atrimmed-scafstats.tsv
Retaining all best sites for ambiguous mappings.
NOTE:	Ignoring reference file because it already appears to have been processed.
NOTE:	If you wish to regenerate the index, please manually delete 03-split_by_reference/index/ref/genome/1/summary.txt
Set genome to 1

Loaded Reference:	10.538 seconds.
Loading index for chunk 1-26, build 1
Generated Index:	39.061 seconds.
Analyzed Index:   	32.594 seconds.
Reads that map to multiple references will be written to the first reference's stream only.
Started output stream:	0.199 seconds.
Creating ref-set statistics table:    	0.118 seconds.
Creating scaffold statistics table:   	0.498 seconds.
Cleared Memory:    	7.321 seconds.
Processing reads in paired-ended mode.
Started read stream.
Started 20 mapping threads.
Detecting finished threads: 0, 1, 2, 3, 4, 5, 6, 7, 8, 9, 10, 11, 12, 13, 14, 15, 16, 17, 18, 19

   ------------------   Results   ------------------   

Genome:                	1
Key Length:            	13
Max Indel:             	20000
Minimum Score Ratio:  	0.56
Mapping Mode:         	normal
Reads Used:           	80000000	(9615649291 bases)

Mapping:          	10756.758 seconds.
Reads/sec:       	7437.18
kBases/sec:      	893.92


Pairing data:   	pct reads	num reads 	pct bases	   num bases

mated pairs:     	 94.1355% 	 37654210 	 95.0178% 	  9136583184
bad pairs:       	  3.4615% 	  1384609 	  3.5402% 	   340414594
insert size avg: 	  197.77


Read 1 data:      	pct reads	num reads 	pct bases	   num bases

mapped:          	 99.0860% 	 39634380 	 99.1299% 	  4807489214
unambiguous:     	 85.5536% 	 34221434 	 85.7836% 	  4160237884
ambiguous:       	 13.5324% 	  5412946 	 13.3462% 	   647251330
low-Q discards:  	  0.0759% 	    30368 	  0.0376% 	     1822080

perfect best site:	 51.7148% 	 20685918 	 51.7306% 	  2508771943
semiperfect site:	 52.0264% 	 20810551 	 52.0489% 	  2524211669
rescued:         	  3.1558% 	  1262322

Match Rate:      	      NA 	       NA 	 53.7864% 	  4775416339
Error Rate:      	 47.6318% 	 18878566 	 46.2037% 	  4102190215
Sub Rate:        	 28.8404% 	 11430722 	  0.3150% 	    27963908
Del Rate:        	 26.2695% 	 10411752 	 45.8524% 	  4070992525
Ins Rate:        	  1.9659% 	   779173 	  0.0364% 	     3233782
N Rate:          	  0.2983% 	   118244 	  0.0099% 	      875185


Read 2 data:      	pct reads	num reads 	pct bases	   num bases

mapped:          	 97.7850% 	 39114015 	 98.4764% 	  4693348171
unambiguous:     	 84.2460% 	 33698388 	 85.0520% 	  4053546129
ambiguous:       	 13.5391% 	  5415627 	 13.4244% 	   639802042
low-Q discards:  	  1.2971% 	   518857 	  0.6532% 	    31131393

perfect best site:	 51.4504% 	 20580169 	 52.1207% 	  2484052341
semiperfect site:	 51.7979% 	 20719155 	 52.4807% 	  2501211047
rescued:         	  4.0719% 	  1628747

Match Rate:      	      NA 	       NA 	 52.5000% 	  4661876907
Error Rate:      	 47.2256% 	 18471839 	 47.4906% 	  4217052964
Sub Rate:        	 26.8884% 	 10517115 	  0.3117% 	    27680555
Del Rate:        	 27.1873% 	 10634054 	 47.1456% 	  4186421990
Ins Rate:        	  1.8852% 	   737391 	  0.0332% 	     2950419
N Rate:          	  0.2858% 	   111804 	  0.0095% 	      840290

Total time:     	10848.989 seconds.
java -Djava.library.path=/home/darcyabjones/local/bbmap/36.67-bin/jni/ -ea -Xmx220006m -cp /home/darcyabjones/local/bbmap/36.67-bin/current/ align2.BBSplitter ow=t fastareadlen=500 minhits=1 minratio=0.56 maxindel=20 qtrim=rl untrim=t trimq=6 k=13 untrim=t ambiguous=all path=03-split_by_reference/index build=1 basename=03-split_by_reference/inplanta-SN15-019-008-R1-atrimmed.fastq-R#-atrimmed-%-pre.fastq.gz outu=03-split_by_reference/inplanta-SN15-019-008-R1-atrimmed.fastq-R#-atrimmed-unmapped-pre.fastq.gz in=02-chunkify_fastqs/inplanta-SN15-019-008-R1-atrimmed.fastq in2=02-chunkify_fastqs/inplanta-SN15-019-008-R2-atrimmed.fastq ambiguous2=best maxindel=20000 refstats=03-split_by_reference/inplanta-SN15-019-008-R1-atrimmed.fastq-atrimmed-refstats.tsv scafstats=03-split_by_reference/inplanta-SN15-019-008-R1-atrimmed.fastq-atrimmed-scafstats.tsv
Executing align2.BBSplitter [ow=t, fastareadlen=500, minhits=1, minratio=0.56, maxindel=20, qtrim=rl, untrim=t, trimq=6, k=13, untrim=t, ambiguous=all, path=03-split_by_reference/index, build=1, basename=03-split_by_reference/inplanta-SN15-019-008-R1-atrimmed.fastq-R#-atrimmed-%-pre.fastq.gz, outu=03-split_by_reference/inplanta-SN15-019-008-R1-atrimmed.fastq-R#-atrimmed-unmapped-pre.fastq.gz, in=02-chunkify_fastqs/inplanta-SN15-019-008-R1-atrimmed.fastq, in2=02-chunkify_fastqs/inplanta-SN15-019-008-R2-atrimmed.fastq, ambiguous2=best, maxindel=20000, refstats=03-split_by_reference/inplanta-SN15-019-008-R1-atrimmed.fastq-atrimmed-refstats.tsv, scafstats=03-split_by_reference/inplanta-SN15-019-008-R1-atrimmed.fastq-atrimmed-scafstats.tsv]

Merged reference file 03-split_by_reference/index/ref/genome/1/merged_ref_7744785918.fa.gz already exists; skipping merge.
Ref merge time:     	0.027 seconds.
Executing align2.BBMap [ow=t, fastareadlen=500, minhits=1, minratio=0.56, maxindel=20, qtrim=rl, untrim=t, trimq=6, k=13, untrim=t, ambiguous=all, build=1, outu=03-split_by_reference/inplanta-SN15-019-008-R1-atrimmed.fastq-R#-atrimmed-unmapped-pre.fastq.gz, in=02-chunkify_fastqs/inplanta-SN15-019-008-R1-atrimmed.fastq, in2=02-chunkify_fastqs/inplanta-SN15-019-008-R2-atrimmed.fastq, ambiguous2=best, maxindel=20000, refstats=03-split_by_reference/inplanta-SN15-019-008-R1-atrimmed.fastq-atrimmed-refstats.tsv, scafstats=03-split_by_reference/inplanta-SN15-019-008-R1-atrimmed.fastq-atrimmed-scafstats.tsv, ref=03-split_by_reference/index/ref/genome/1/merged_ref_7744785918.fa.gz, out_ta=03-split_by_reference/inplanta-SN15-019-008-R1-atrimmed.fastq-R#-atrimmed-ta-pre.fastq.gz, out_pn=03-split_by_reference/inplanta-SN15-019-008-R1-atrimmed.fastq-R#-atrimmed-pn-pre.fastq.gz]

BBMap version 36.67
Set MINIMUM_ALIGNMENT_SCORE_RATIO to 0.560
Reference set statistics will be written to 03-split_by_reference/inplanta-SN15-019-008-R1-atrimmed.fastq-atrimmed-refstats.tsv
Scaffold statistics will be written to 03-split_by_reference/inplanta-SN15-019-008-R1-atrimmed.fastq-atrimmed-scafstats.tsv
Retaining all best sites for ambiguous mappings.
NOTE:	Ignoring reference file because it already appears to have been processed.
NOTE:	If you wish to regenerate the index, please manually delete 03-split_by_reference/index/ref/genome/1/summary.txt
Set genome to 1

Loaded Reference:	10.242 seconds.
Loading index for chunk 1-26, build 1
Generated Index:	38.155 seconds.
Analyzed Index:   	24.651 seconds.
Reads that map to multiple references will be written to the first reference's stream only.
Started output stream:	0.193 seconds.
Creating ref-set statistics table:    	0.111 seconds.
Creating scaffold statistics table:   	0.481 seconds.
Cleared Memory:    	10.042 seconds.
Processing reads in paired-ended mode.
Started read stream.
Started 20 mapping threads.
Detecting finished threads: 0, 1, 2, 3, 4, 5, 6, 7, 8, 9, 10, 11, 12, 13, 14, 15, 16, 17, 18, 19

   ------------------   Results   ------------------   

Genome:                	1
Key Length:            	13
Max Indel:             	20000
Minimum Score Ratio:  	0.56
Mapping Mode:         	normal
Reads Used:           	47218810	(5686525369 bases)

Mapping:          	6324.288 seconds.
Reads/sec:       	7466.26
kBases/sec:      	899.16


Pairing data:   	pct reads	num reads 	pct bases	   num bases

mated pairs:     	 94.5230% 	 22316312 	 95.3174% 	  5420250436
bad pairs:       	  3.4411% 	   812413 	  3.5189% 	   200100652
insert size avg: 	  197.21


Read 1 data:      	pct reads	num reads 	pct bases	   num bases

mapped:          	 99.1370% 	 23405651 	 99.1540% 	  2842034199
unambiguous:     	 85.6133% 	 20212786 	 85.8198% 	  2459838193
ambiguous:       	 13.5237% 	  3192865 	 13.3342% 	   382196006
low-Q discards:  	  0.0296% 	     7000 	  0.0147% 	      420000

perfect best site:	 51.8632% 	 12244590 	 51.8406% 	  1485897401
semiperfect site:	 52.1741% 	 12317995 	 52.1582% 	  1495000281
rescued:         	  3.1567% 	   745287

Match Rate:      	      NA 	       NA 	 53.7424% 	  2823117743
Error Rate:      	 47.5212% 	 11122656 	 46.2484% 	  2429457338
Sub Rate:        	 28.7085% 	  6719404 	  0.3143% 	    16512479
Del Rate:        	 26.2648% 	  6147457 	 45.8975% 	  2411024912
Ins Rate:        	  1.9731% 	   461828 	  0.0365% 	     1919947
N Rate:          	  0.2833% 	    66299 	  0.0092% 	      484030


Read 2 data:      	pct reads	num reads 	pct bases	   num bases

mapped:          	 98.1013% 	 23161127 	 98.6386% 	  2781848665
unambiguous:     	 84.5279% 	 19956532 	 85.1977% 	  2402781181
ambiguous:       	 13.5734% 	  3204595 	 13.4409% 	   379067484
low-Q discards:  	  0.9931% 	   234476 	  0.4988% 	    14068560

perfect best site:	 51.5979% 	 12181962 	 52.1542% 	  1470876473
semiperfect site:	 51.9443% 	 12263730 	 52.5121% 	  1480968299
rescued:         	  4.0951% 	   966829

Match Rate:      	      NA 	       NA 	 52.5210% 	  2763278155
Error Rate:      	 47.2424% 	 10941877 	 47.4699% 	  2497527050
Sub Rate:        	 26.9705% 	  6246674 	  0.3106% 	    16341159
Del Rate:        	 27.1901% 	  6297534 	 47.1261% 	  2479437165
Ins Rate:        	  1.8861% 	   436847 	  0.0332% 	     1748726
N Rate:          	  0.2894% 	    67037 	  0.0091% 	      480625

Total time:     	6409.702 seconds.
	Command being timed: "bash ./03b-split_by_reference_sn15.sh"
	User time (seconds): 1199942.14
	System time (seconds): 890.19
	Percent of CPU this job got: 1972%
	Elapsed (wall clock) time (h:mm:ss or m:ss): 16:54:41
	Average shared text size (kbytes): 0
	Average unshared data size (kbytes): 0
	Average stack size (kbytes): 0
	Average total size (kbytes): 0
	Maximum resident set size (kbytes): 76491004
	Average resident set size (kbytes): 0
	Major (requiring I/O) page faults: 0
	Minor (reclaiming a frame) page faults: 1547431
	Voluntary context switches: 12312220
	Involuntary context switches: 120925993
	Swaps: 0
	File system inputs: 0
	File system outputs: 67142704
	Socket messages sent: 0
	Socket messages received: 0
	Signals delivered: 0
	Page size (bytes): 4096
	Exit status: 0
